﻿0,1,2,3,4,5,6,7,8,9
Characteristics,Total occupied housin,Rodent seen in unit r,,,,Leaks during precedin,,,
,,No:,(%),Unadjusted odds ratio,(95% CI),No:,(%),Unadjusted odds ratio,(95% CI)
Sex,,,,,,,,,
Male,"60,721","3,716",(35.2),Ref:,,"5,748",(9.6),Ref:,
Female,"51,084","3,219",(38.9),1.2,(1.0-1.3),"5,215",(10.3),1.1,(1.0-1.2)
Race/Ethnicitv,,,,,,,,,
White; non-Hispanic 5,,,,,,,,,
Hispanic,79.333,849,(51.3),2.1,(1.7-2.6),997,(7.9),0.7,(0.6-0.9)
Rlack non-Hicnanic,12 730,1 028,(AA 9),1 6,(1 3_2 0),1 447,(10 7),,(0 0_1 )1
LCCt Ad Pefat= Ician ,T1' # 2 13 600,i~2o 172,"4 '""81 (43 9)",4d 1 6,A # Lto / (1 1_2 ?1,F44i 220,"4 ' 0"" 1 (5 5)",e 0 5,Aiae Al] (0 A_0 71
U LLaiddld[ American ,"eiod # 4,181",Ei 77,4 '~.1 (53.0),Fd 2.3,"A' ""4 Lt , (1.1-4.7)",W 81,Ada (11.2),d 1.1,Aa ti] (0.7-1.8)
"Nalive Sex, by racele",,,,,,,,,
,,,,,,,,,
Male White; non-Hispa,"44,537 7 160","2,739 200",(33.0) U^ 01,Ref:,,"4,439 CA",(10.1),Ref:,
spare Black non-Hispa,TTU 5 520,000 353,Tttol (41.0),1. 1.4,Tn'ZFL21 (10_1.9),Dtto 561,7(7. 1 (10 3),JO. 1.0,4(0.0-0.1 (0 8-_1 2)
 e Asian /Pacific Isl,2577,115, (46 3),1.8, (1 1_2 9),113, (44),0 4, (0 3-0 6)
American Indian/Alask,352,55, (65.1),3.8, (13-11.1),42,A (11.9),1.2, (0.6-2.4)
~ialivc Female,,,,,,,,,
,,,,,,,,,
White; non-Hispanic,"34,795","1,953",(34.0),Ret:,,"3,639",(10.6),Ret:,
Hispanic,"5,580",451,(59.0),2.8,(2.0-3.9),452,(8.1),0.8,(0.6-0.9)
"Black, non-Hispanic","8,090",675,(47.),1.7,(133-2.2),885,(TT.),1.,(0.9-1.2)
Asian/Pacific Islande,"1,604 970",57,(39.9) 436 1),13,(0.7-2.5) 2 )1,116 20,(73) (10 D),0.7,(0.5-1.0) 1 0)
AincncanMnuianNiasna ,,,,,,,,,
Annual income (S),,,,,,,,,
"<24,999 25 000_49 999","49,240 29 757","2,388 1 913",(45.1) (38 0),1.9 1 4,(1.6-2.2) (1 2_1 7),"2,957 2 915",(9.7) (9 9),1.0 1 0,(0.9-1.1) (0 9_1 1)
,,,e,,i,,,, ll
"5u,uuu-/4,999","18,55/",9/1,(32.1),.,(0.9-1.5),"1,88 [",(10.5),10,(0.9-1.2)
"275,000","32,558","1,663",(30.5),Ref:,,"3,209",(9.9),Ref:,
Education level,,,,,,,,,
Less than high school,"15,229","1,270",(44.1),1.5,(1.3-1.8),"1,297",(8.6),0.8,(0.7-0.9)
High school diploma,"30,692","1,955",(38.2),1.2,(1.0-1.4),"2,698",(8.9),0.8,(0.7-0.9)
'college education An,"65,884","3,709",(34.3),Ref.,,"6,969",(10.7),Ref:,
U.S. Census region,,,,,,,,,
"Northeast 23,316 1,85",,,,,,,,,
Midwest,"29,403","1,571",(33.9),1.1,(0.9-1.4),"3,694",(14.7),2.4,(2.1-2.8)
South,"49,372","2,485",(37.3),13,(1.0-1.6),"3,383",(8.3),1.3,(1.1-1.5)
West,"28,021","1,029",(31.9),Ref:,,"1,600",(6.6),Ref:,
Disability status,,,,,,,,,
Yes,"3,647",289,(41.6),1.2,(0.9-1.7),469,(12.9),1.4,(1.1-1.7)
No,"108,151","6,646",(36.7),Ref:,,"10,494",(9.8),Ref:,
Total,"111,800","6,935",(36.9),,,"10,960",(9.9),,
