﻿0,1,2,3,4,5,6,7,8
NOTE : Minimum  sampl,quirementz,5 we],~e ac,ljuste,d,or the,2 re,lative
inefficiency in the s,design b Ccmr,Y a 9,fact mr},or ec Tari,jua],to t Isimr,he,desigr 1 ndon
A _ _~~ Ci Avv 1 1 __,Citf _ ~,1I  @,1LL _ `,FL _ _,C1 1 1 ~,~| P_ILLL,'1 ~,L C 1 I ~I  1L
For midrange proporti,,,,,,,,
For extreme proportio,,,,,,,,
L L  L Or equal to 0.,ple size,1 (n ),sati,sfies,the, L 3 follo,wina,rule
n (p) greater than or,8 and n (,1-p),gre,ater,har,1 or e(,qual,to 8
