﻿0,1,2,3
Year,Total,Public,Private
Actual,,,
1996,16.9,17.1,15.E
1997,16.6,16.8,15.2
1998,16.3,16.4,15.C
1999,15 9,16 1,14
2000,15.9,16.0,14.5
2001,15.7,15.9,14.2
2002,15.7,15.9,14.1
2003,15.7,15.9,13.8
2004 Oocc,15.5 45,15.8,13.-
CuUO Oo,10.4 45 0,10.0,T0. 0 r
CuUO 00n7,70.0 0,10.0 C C,T0.Z
Cuu [ Dooo,70. 15 0,10.0 45 2,To. 49 S
L Oo Dooo,4O+o 15 0,4 Dio 45 ^,ALT 49 C
L Odo,4O+o,4 Dr,TCil
2040,15 0,45 9,19
Ln 4n Ann Projected O,,,
,,,
Zu | | 0040,14. 4 ^ 0,70. 45 0,T. 40 ~
Lu( 9049,17.0 44 0,70. 45 4,C. 49 G
LoT 0 201A,Tt o 1A 7,TO. 45 0,CIC 19 <
Ln 2015,14 6,An 14 9,E Lin D 12 1
S 2016,14.5,14.8,12.1
2017,14 4,14.7,12 C
2018,14.3,14.6,11.S
2019,14.2,14.5,11.8
2020,14.1,14.4,11.7
2021,14.1,14.4,11.7
