﻿0,1,2,3,4,5,6,7,8,9,10,11
,,<5,S+,Male,Fermale,Mile,Female,Poorest,Least Pcj,Wit,wv
lern Care,Government,4472,31.15,46.4%,42.93,38.63,"33,3%",42.6%,"5L,0.",8 55.69,
,Homne / Shops,20.07,"36 |%""","26,3%",18.63,28.2%,"3L,9%",22.2%,"15,73",6 19.45,
Jitional Care,Ncc-Covernment,14/,Jor,,I662,,9 384,9 394,9 &,2.89,
,,,,,,,,,,,
,TM  Home,,,,4GCC,0}-,799 ,1992,,oloey,
Care,Noce,U9%,42,686,1128,206,1439,792,,5 698,
,,,,,,,,,,,
,,Adov,"JJ,0",Aooi,AiooA,4097,4o.a,IooF,Oo,Aoi,
