﻿0,1,2,3,4
,loln,mplot,I now,
Austria,0,100,0,1
Belgium,0,0,100,3
Bulgaria,0,0,100,9
Finland,0,0,100,2
France,0,100,0,14
Germany,14.3,76.2,9.5,21
Hungary,0,100,0,1
Ireland,0,0,100,7
Italy,0,0,100,76
Netherlands,0,80.0,20.0,5
Poland,0,0,100,1
Portugal,0,0,100,74
Romania,0,0,100,4
Slovenia,0,100,0,1
Spain,100,0,0,201
Sweden,0,100,0,8
United Kingdom,0,46.2,53.9,13
EU Total,46.3,11.6,42.2,441
