﻿0,1,2,3,4,5,6,7
Year,Total,[in tnousanas],,,,,
,,,,Racelethnicity,,American Indian/,Two o1 more races
,,,,,,,
,,White,Black,Hispanic,,Alaska Native,
Actual,,,,,,,
"1996 12,849 8,530 2,0",,,,,,,
1997,"13,056","8,616","2,068","1,675",552,145,
1998 1999,"13,195 13,371","8,670 8,719","2,073 2,106","1,732 1,808",572 587,148 151,
2000 9001,"13,517 42 726","8,750 8 777","2,119 9 178","1,894 9 Onq",601 6i0,153 450,
LeL,Ycdi Ci,Aa9 ' '',C' ' ' #,L##~,ni,A,
Zuuz,"14,069","8,854","2,25(","2,148",042,108,
Zuu3 ,"14,339 ","8,884  ","2,334  ","2,282  e",663 ,1 ( ( e,
ZUu4,"14,018","8,920","2,408","2,42(",080,7(8,
ZUUJ Oocc,"14,9u3 45 0o4","8,934 0 0oo","2,49u 0 [aO","Z,oiu 7 704",(Us 7o0,T60 404,
LUUO 00o7,"To,uo | 45 0o7","O,joo 770",2i0tu 0 574,Wiiu | 0 004,Cu 790,0 | 409,
CooT onoo,TJoo[ 1^ 0qo,"O,i ' 0 0 EEc",Lioi | 9 EcE,Liol| 9 97/,T 0o 7c,4oo 470,EO
Loo Onoo,Aood 4^ O5f,Oodo 0 ^04,Diood 9 5aO,LioiT 9 00/,4n 757,4[ # 470,
Looo,"TT,ooy",Oito|,Dioto,Lioot,1 O,4' 0,CE
Zutu,"14,86U","8,109","2,422","3,125",(55,1 (1,2i (
Projected,,,,,,,
Cu| | 0040,"14,70( 4^ 759",Njoc 7 004,2idi 0 0 990,"0,2i2 9 907",70 / 775,T0o 405,2og
CoT 5 9012,"Tt,i Jl 1^ 766","T,JU | 7 81A",Liolo 9 205,"O,loi 2 261", ( 0 702,Too 465,CoC 207
LL~ 901A,n) ' Oo 1A 005,7 9 # 7 991,Ciooo 9 299,OCgoo [ 2 170,4 805,At 467,Sl 218
ALi_ 2015,4n Col 15 038,GC' 7 804,CioCC 9 394,Aadenon 3 588,S tn 899,Et 4168,An 339
n 2016,4n 15 116, An 7753,Le]L  2 314,n 3 691, 845, 169, 344
2017,15 195,7713,2 290,3 794,874,4170,353
2018,15.241,7.663,e 2.260, 3.889,895,170,364
2019,15.304,7.640,2.266,3.925,927,174,372
2020,15.410,7.640,2.283,3.969,958,178,381
2021,"15,515",7.633,"2,315","4,011",983,182,391
