﻿0,1,2,3,4,5
,,,,) Primary cancer ofth,
,N,c,,; Primary carccr of t,
,N,C,,1y Primary canccr of ,HIP decrcascs
,,,,3 Adcnorarrinoma,
,M,C,53,1 Gustrit Cncer,
,M,C,,1 Gitric Gncer,
,,,,,
,M,,,Adenotarcinoma,
,M,,SC,) Mucinous adenocarcl,
,,C,,2 Adenocarcinoma,
,,c,67,7 Adenocarcinoma,
,M,C,,J Adenocarcinoma,
,,,,J Adenocranoma,
,,,,,HIP decreases in
,,,,Adenocarcincma,
,,,,Auddctde Duedn,
,,,,1 Adenocarcinoma,
,,,,dcncetcnom,
,,,,1 adcnocarcinoma,
,,,,Wdcndcrcmnon,
,,,,ttlatl,
,,,,i,
,,c,,i J Adenocarcinoma,
,,,,,
,,,,T ucinOUI ACEnCLTCITJ,
,M,C,,} Adenocircinoma,
,,,,7 Adenocarcinoma,
,,C,,) Adenocarcinoma,
,,c,,n ) Adenocarcinoma,
,M,c,,2 Adenocarcinoma,
,,,,,
,,,,cncrrcncm,
,M,c,,3 Adcnorarrinoma,
,,,,,AP dccrcitctin
,,,,Ccncl Canrcrchthc ric,
,e M,,,5 1 Central carcer of,
,M,,5,Perioteral carcer ol ,
,,,,Sqlmnous,
,,,,Sanmous Hramn,
,,,,,
,,,,,
,,,,d,
