﻿0,1,2,3,4,5,6,7,8,9,10,11,12,13
,,,N,,Iolo ; 3N,Yo ri,,,,20,%fo Pos,20,
,,,,% Pos,,,,N,% Pos,N,,N,% Po
Austria,Single,25g,109,0.9,9,3,1.1,89,1.1,,,,
Germany,Single,25g,123,0.8,29,0,0.7,391,0.5,454,2.0,188,2.7
Netherlands,Single,259,269,1.1,39,7,0.3,389,0,287,1.1,227,0
Spain,Single,259,36,0,4,0,0,107,0,,,,
Total (4 MSs),,,537,0.9,82,0,0.5,976,0.3,741,1.7,415,1.22
