﻿0,1,2,3,4,5,6
Fducation cVctem,Schools in Oricinal c,Schools Eligible scho,Substitute cchoclc,Total schools that na,Sampled students in p,Students accecced
ALn Ie lnlan[ PJeaet ,CSttit CLtit_ 290,CCn_ Fatenatoe 284 27,dl 5,Fatenatoe 280,dl 6 709,Aiea IILLine 6 126
Austria,160,158 158,0,158,"4,976","4,670"
Azerbaiian,170,169 142,27,169,5 098,4 881
71ddi Reldium (French,150,150 115,12,127,3 910,3 727
3  Eiddit4i=dta Dh,150,7 1/ 2,,1/7,C 7oc,5 204
Duigana,4 90 1 112,45[ 451 4 425 4 ^oc,D,41 14 144,Ji Lu 25 707,Jilo [ 2 ^06
yanaua Chinece Tineic,7A2 150,"Lo T,Uo 150 150",L,T| [ 150,Loio[ A 376,Loicoo A 203
SAn4=# Tutpoi #iT Col,A 157,A A 152 131, 19,A 150,"Sd 4,309","NEd_ 3,966 5o7"
UlOalia,102,102 TOU,2,102,"0,UJ (","4,00 ("
Uzeci Repuniic,TOU,4(0 40 |,40,F( (,"4,090","4,J0"
Denmark,24u,Zso Zu (,25,2Sz,"4,994","4,594"
Engialia-UDh Finland,TOU 150,140 TUS 146 141,ZU 4,T29 145,"4,2+0 4,914","D,Ji 4,640"
France Georaia,175 180,175 170 177 172,4 1,174 173,"4,638 4,958","4,438 4,796"
,,,,,,
Gemmany,ZUU,TJ9 Ju,,9(,"4,CLJ","4,UUU"
Hong Kong-CHIV Hungar,154 150 45o,TSu 150 150 146 45o 1,2 3,152 149 150,"4,189 5,488 OAO","3,8/5 5,204 704"
Muonicsia,4 90,4 90 4 90,I,4 9o,Ji0to,"4,0[ O"
Tan; Islamic Tep: Ui,LJU,244 244,0,244,"0,Jz","0,/d0"
Telana,102,40 | 440,5,40|,"4,043","4,024"
Islaci,40o,40o TOU,2,102,"4,79","4,00"
Taly itbuania,ZuO 160,ZuO 40o 164 145,50 0,ZuZ 164,"4,ZJ 5 1A0","4,03 A 651"
icGG4,A,A A,U,A,Oa [ene m,d Ce[
Wlalla Morocco,J9 289,J0 J0 287 284,U 0,J0 284,"J,JJo 8,381","J,*J0 7,805"
ivemnenanas,40 |,40 | J (,4|,4oo,"4,(9","J,JJo"
New Zealand,201,199 180,12,192,"6,192","5,644"
Tonnemn Irclana-Obn N,TOU 150 338,TOU TUU 145 85 333 32,50 35 0,450 120 327,"J,942 3,921 10.840","J,do0 3,190 10.394"
Dcland,150,150 150,,150,5 216,5 00g
4 CLl Portuqal,A 150,A A 150 133, 15,A 148,"Ooae 4,428","C!C_ 4,085"
Qatar,175,167 166,0,166,"4,394","4,120"
Romania,150,148 147,1,148,"4,879","4,665"
Russian Federation,202,202 202,0,202,"4,693","4,461"
Saudi Arabia,175,171 163,8,171,"4,625","4,507"
Singapore,176,176 176,0,176,"6,687","6,367"
Slovak Republic,200,198 187,10,197,"5,933","5,630"
Slovenia,202,201 193,2,195,"4,674","4,512"
Spain,314,314 308,4,312,"9,223","8,580"
Sweden,161,153 148,4,152,"5,209","4,622"
Trinidad and Tobago,150,150 149,0,149,"4,190","3,948"
United Arab Emirates,478,460 458,0,458,"15,372","14,618"
United States,450,437 349,21,370,14.253,12.726
