﻿0,1,2
rckitcd t0 rignals an,altronsductic 7,
32 Acctylctalinc rccc,,
12,Srain tync Il alcium ,[09]
related tJ cell adres,Axspondin Istawn in F,[o]
1879,Vcurocan (chondrcitin,
15,Veurotrirnir,[03]
75,Von- processed reurex,84
53,TSP + (trombospondin ,IS-
