﻿0,1
Journal Titlc,Numbor Qualitatlve St
Journa Adyanceo,
Medicine Social Schen,
Oual Guehele  Hereh,
Kra,
escern Qurlzi kesearc,
Cancer Nursing,
,
Micwiter,
,
,
,
,
,
,
,
Hcartand Lunf,
Jurna Junursinz Schol,
Pationt Education and,
ufn Pcdiatric Nursing,
,
,
,
ournal Generalinterna,
Medicig { Canadian lo,
Nurslng,
,
,
Applied Nursing Resea,
,
,
,
,
LofPublic He,
,
szency Hedic,
Annal nnrera Medicine,
,
Auscrallan and New Ze,
BJOG (Bricish Journa ,
British Journal Psych,
Journal} Oiaho,
,
Iorernarional lournal,
Iaurra Epigcuciczy Cc,
,
Nurshe Reseaic,
Yestern ournal ofhedi,
