﻿0,1,2,3,4,5,6
Differences with resp,Portuz,gal,Greece,Spain,Italy,France
Q2 2006 Q1 2010**,0.33,,0.51,0.31,0.18,0.05
Q1 2009 Q4 2009,.0.01,,0.45,0.21,0.18,0.05
Q4 2009,0.17,,0.70,0.26,0.09,-0.01
Q1 2010,0.64,,0.72,0.56,0.43,0.25
