0,1,2,3,4,5,6
,,BA Tại,NG CÂN ĐÓ gày 31 thán,KÉ TO 12 năm,ÁN 2021,MAU SÓ B01 DN Đơn vị 
,,CHỈ TIÊU,Mã số,Thuyết,31/12/2021,01/01/2021
,,SẢN NGẮN HẠN TÀI,100,,281.042.800.361,242.041.832.838
,,Tiền và các khoản tươ,110 111,,4.529.209.991 4.529.2,1.194.545.232 1.194.5
"2 3 4 IIL 1. "" B L 2 ",,Các khoản phải thu ng,130,,222.331.837.375,189.399.113.496
,,Phải thu ngắn hạn của,131,,228.840.031.305,200.832.143.783
,,Trá trước cho người b,132 136,,179.543.350 5.300.000,112.851.840 210.083.0
,,Dy Pnun9 PIIQI [/0/92,10/,,(1.9o7 .7 37 .Zou),(77.799.903.127)
,,Hàng tôn kho Hàna tồn,140 1 /1,,53.637.344.732 52 627,49.634.384.560 Ao C?A
,,,,,,
,,Tài sản ngắn hạn khác,150 151 200 5,10,544.408.263 544.408.2,1.813.789.550 1.813.7
,,Tài sản cố định hữu h,221 222 223,12,113.310.618.591 312.9,"Etu;udJ,jo,oju 140.16"
,,Tài sản cố định vô hì,227 228 229 240 242,11,43.386.648 681.600.0o,173.546.652 681.600.0
,,Tài sản dàihan khác,26o,,57 204 Oc7,QE Ono Aaa
,,Chi phí trả trước dài,261,10,57.301.067,35.209.111
