﻿0,1,2,3,4,5,6,7,8,9,10
,,,,,,,,,,
Alill,t 452,t 46,t,t e,t 38,374,t 4060,en,t,t
,,,,,,7 [9,,,,
,,,92,91,J0,,6J,,,
tu Fllmn,,L65,95,7i,,479,,,56,59
,,50,,,,,,,cG,
 ,t,,,e t,,,t,n,,A =t
Ji Teptod Imm,Toz,43o,J2,ulvi,ULLJ,ioJ,n ~oo,3s,Sn,~LS
al reprod del,-10.20,203,35.03,< d.0di 5.93,1.65,171,40.00|,426,"1,.93",~22i
bulary,-14.39,239,"3,03",<00di 8.64,192,450,<0.Ci,"35,74",2.29,2251
arities,"~9,95",243,4.09,< 0.odi 3.51,0.84,4.17,<0.Co|,2245,L.02,2245
5 Symbol,"-1o,0|",2 66,"3,9i","6 0,01 4,42",213,"2,08",0.04,35 66,254,2213
4 drsign,"~8,48",276,"3,07","{004 6,64",136,"3,38","0,0o1",33i,231,-143
l Icarninz,"-11,74",21,3653,"<0,0di 8,22","1,69","4,87","<0,Co1",5552,103,72
clust anlc,20,,4547,<DCo 497,~0 97,"5,0",< 0.C0,-128,,|09
,,,,,,,,,,
"76 """,,[,,[ta,, [,i[,,,ide
