﻿0,1,2,3,4,5,6,7,8,9
,,,'S| Iv A,S8,YSB Gm,IvSB Tn,470 [,v178 TA,IvSI7B CA
,,,,,,,,,
7yrs,CF-PI,€.39AdeltT,,,0,,M  ],,13
,,23i99del6,2,,,7,7,,17
ioyrs,CF-FS,Tc339SinsA;D.II 48T1,,3,0,,M 7,,17
,,,,,,,,,
,CFA, ci99dclk-D,1   12,,,,M  7,,
,,,,,,,,,
,,Tt Ettia,,,,,,,
J 4,F,UC JTodomPadi,,,Tl,,,,
,,{povoue,,,,,M J,,m
