﻿0,1,2,3,4,5,6
Coronary heart diseas,,,,,,
,No:,Rate,(95% CI),No:,Rate,(95% CI)
Sex,,,,,,
"Female 200,915 103.1 ",,,,,,
Male 224510 176.5 (17,,,,,,
Race,,,,,,
,,,,,,
American Indian/Alask,"1,880",97.4,(92.8-102.0),548,29.4,(26.9-32.07
Asian/ Pacific Island,"7,570",77.1,(75.4-78.9),"3,662",37.0,(35.8-38.23
Black,"44,530",161.6,(160.1-163.1),"17,045",61.6,(60.7-62.67
White,"371,445",134.2,(133.8-134.6),"115,864",41.7,(41.5-42.03
Ethnicity,,,,,,
Hispanic,"20,939",106.4,(104.9-107.8),"7,005",34.2,(33.4-35.03
Non-Hispanic,"403,588",136.8,(136.4-137.3),"129,892",44.0,"(43.8-44.3,"
Total,"425,425",135.0,(134.6-135.4),"137,119",43.6,(43.3-43.8
