﻿0,1,2,3
Measurement Pronertv,Type,What Is Assessed?,FDA Review Considerat
eLl - 4 Reliability,Test-retest or intra-,Stability of scores o,Intraclass correlatio
,Internal consistency,Extent to which items,Cronbach' s alpha for
,Inter-interviewer rel,Agreement among respo,Interclass correlatio
Validity,Content validity,Evidence that the ins,Derivation of all ite
,Construct validity,Evidence that relatio,Strength of correlati
Ability to detect Ich,,Evidence that a PRO i,Within person over ti
