﻿0,1,2,3,4
,,,448,458
Tand SD ol ra hchine-,,05 +0.2,1+04,0.6 + 0.4
1and SD elare,53.6 = 10.4,50.6 + 9.34,50.8 + I0 4,51.2 +9.9
1 and SD of rumber cl,2344+ 12.2,245 + 10.7,2444 +95,2444+ 10.6
1anc SD 0TFIND,5. 22,54123,96 *20,54122
3ll CEl-Ediii,,,,
Al@_o5 - -,t ACotdi, A2i,C Ae-2i,F Aiony
TTMD_ccie4-0,40 (40.0737,UU (4+.073],76 (JcIR),2i0 (47.0r0)
JND score /=iu,18 (J2.EiD),16 (Je.ir),747(Jj.6n),7138 (s3.6)
"Ioer 0"" smckers tayin",5u (61.Ufo},432(7se),707 (36.010),267 (Jo.7r0)
C,,,,
neconccuphtion-i,"Ao(to,emi",Tnrm,3o Oim,"T4(""m"
AincroncsPutone_,70099.02,49|0973/i,02 (7l80,2t (9J-20)
comempiaucn,Zu (2J.J/,3i472],2(TJ-Or0),70 (10.87
Preparuor,2(l3A),710 (43541,(im),75 (3.370)
