﻿0,1,2,3,4
,,Ncutrophils,~ Lymphocytcs,%Monos
heral blood,,,,
T (n = 4,"104+4,5","26 + 2 (2,9 + 0,5)",72 + 3 (72 10 6),1+| (03
1 null (n = 5),103 + 14,69 $ 7 (6.8 + 0.91,32 + 6 (3.4 + 0.5),2 + | (0.2
