﻿0,1,2
Attribute,Value,""" 0f Tolal"
Genomne size (bpl,"2,897,425","100.O0"""
DNA coding region (bp,"2,550,315","88,02%"
DNA (; content Ibp),"1,133,894",39.13%
Number ot replicons,,
Extrachromusoma eleme,,
Tolal genes,786,"100,00%"
RNA genes,,"2.26"""
rRNA operuns,,
Prolein-codling genes,723,"97,74%"
Pscudo genes,115,4.13%
with tunction predict,4611,57.82%
Genes in paralog clus,373,13.39%
Genes assigned 1o COG,",674","60,09"""
Genes assigned Pfan d,{00,64.619
Genes wỉth signa pept,812,"29.15"""
Genes with transmembr,581,"20.85"""
SPR,,
