﻿0,1,2,3
"Fartar"" 1992 Srorc",1992 Rank,2002 Srorc,2002 Rank
Iwant t0 continuc MY ,,24+ 08,
I rnioy pulmcnamy-rcl,77,"2,0 +40",10
Icrioy Gring for pulm,3,24+0 5,
Ilikkc pulmonary phxs,3,23 +08,
Ilikke Lhe pulmonany ,3,24+0.8,
Ierjoy pulmonary Inpz,6,23 +0.5,
Iemoved working with ,,21 +07,
Vawight pulmonacy reh,8,14+0.8,12
Iejoy pulmotary clini,8,22 + 0.8,6
Ienjoy CYsuc ibrosis ,10,21 +4.,
1 enjoyed caring for ,,21 *07,
The would be aturictl,12,L.0 $ 0.8,13
Ienoy che tracheostom,13,1.6 #4.1#,
