﻿0,1,2,3,4,5
1992: Residcncy Ycar,Residcnt Numbcr,Numbcr Respondcd,% Response,+PF*,~PFA
,,,,,
2,19,12,63%,1,o
,,,902,,
,,,,,
,,,,,
2002: Residency Year,ResidErt Number,Number Resporided,% Response,+PF#, ~PF +
,,,973,,
,21,20,953,,
3,22,,775,,16
,5,3,607,,3
5,,,ICO%,,
2002 touils,73,63,86%,7,56
