﻿0,1,2,3
,16.6,16.8,
,16.3,16.4,
,15.9,16.1,
,15.9,16.0,
,15.7,15.9,
,15.7,15.9,
,15.7,15.9,
,15.5,15.8,
,15.4,15.6,
,15.3,15.6,
,15.2,15.5,
,15.0,15.3,
,15.0,15.4,
,15.0,15.2,
ted,,,
,14.9,15.2,
,14.8,15.2,
,14.8,15.1,
,14.7,15.0,
,14.6,14.9,
,14.5,14.8,
