﻿0,1,2
Mass (2),23.3 _ 0.9,20.7 1 0 4
,Ahsolutc Musclc Mass ,
alcus,47 +0 6,10? +
MG,,
PLT,"16,8 + 0 8","16,2 + 0 -"
,ETct=nL,Odde
CDL,JoI .,Ud I0.
,renlivetTscie0a58 (0n,
oleu:,"""035 + 0,02",0.48 = 0.u
MG,201 +0.04,166 =0.0
PLT,072 + 0.03,0.78 $ 0.0
