﻿0,1,2,3,4,5,6
Benchmarking educatio,Percentage of interna,National desired popu,Weighted school parti,Weighted school parti,Weighted student resp,Combined weighted sch
Alberta-CAN,100,7,97,99,95,94
Ontario-CAN,100,8,99,99,96,95
Quebec-CAN,100,4,95,96,96,92
Maltese-MLT,100,4,100,100,94,94
Andalusia-ESP,100,5,99,99,97,96
Abu Dhabi-UAE,100,3,99,99,97,96
Dubai-UAE,100,5,99,99,96,94
Florida-USA,89,13,96,96,95,91
