﻿0,1,2,3
49 Ro,Woien fecoxib 25 56,Sirgle oral dose. 3 m,5/5
,  406,,
 Fia 60 Ro N; Fia,I cebo wcmen fecoxib ,o OraL Multple dose s,5/5
12,2 women,OraL Muluiple cose st,585
Ro Ro,"fecoxid ,0 (ecoxis 50",mg 15 required dose e,
