﻿0,1,2,3,4
"""by ? Cardiologist",Ycs,30 (I%h,"0,32 (0 14 -0,381","0,70 40,33 - | 461"
1orbidity,Na,88 (4471,,
,Ycs,15 (257),"L (0 62 _ |,991","0,98 /0,49 _ |,981"
,Na,107 /268,,
cILll,,58 (2491,oi (0.67 _ L5i),1.08 40.71 _ |.731
(years),B,65 (283),,
,30 G 40,,"105 (4.03 _ L,0B1",1.03 /0.99 _ |.061
,4 -60,8 (785),,
,Ib -{0,718 (7,,
,71 -99,96 (403),,
,Males,64 (219),"0.91 (0.62-[,.351",0.83 (0.44 - 1.55)
Inca,Females,58 (34%},o (097 _ |044,0 96 /0 88 _ |0z1
ography,,,,
,,Lz,,
,,,,
3,,e,,=te Eld
,,B Aeotdi,,
