﻿0,1,2,3,4
Source,Year of data,,,
,2007-08,2008-09,2009-10,2010-11
,,"Enrollment , in",housands,
Actual,"49,293","49,266","49,373","49,484"
Proiected enrollment ,,,,
Proiections of Educat,49 644,Ud 49 825,) 50 067,50 35=
e Proiections of Educ,49.470,"49,623","49,788","50,034"
Projections of Educat,T,"49,265","49,312","49,386"
,+,+,"49,282","49,306"
,,,,
Proiections of Educat,0.7,ed) 11, ' ] 1.4,1 E
Proiections of Educat,0 4,0 7,0 8,1 1
e Proiections of Educ,,#,-0.1,-0.2
Proiections of Educat,+,+,-0.2,-0.4
