﻿0,1,2,3,4,5,6,7,8,9,10,11
Category,Age-adjusted disabili,,,,,,Unadjusted disability,,,,
,2 Estimate,,,2010 Margir i ,1 of Diffo,2005,200= Cotina+o,,2010,,Difference
,,3 Margin of,,,,JCnce,,Margin of Cerc,,Margin of Trrcr,
All people,18.E,EOE) 5 0.3,ESin,lale CiToI 8.1,FL DIct 0.3,ACcC *_0.5,Loiniatc 18.7,GnToi 42 0.3,Loinialc 18.7,MiToi (7 0.3,
Male . Female,17.S 19 (,9 0.4 0 3,,7.6 8 3,0.4 0 4,-0.3 +_0 7,17.3 20 1,0.4 0 3,17.4 19 8,0.4 0 4,0.2 9
llilnnd INL#!,,1 n,,n 7,nl 2 2,nl + 0 C,3nn 0 ^,n 0 0,Sn 40 -,nl,
Wvie aiule Mot Licnan, ( 48 _,F J0.o,,1.4 7 6,0.5 0 ^,F0.o 0 /,0.0 40 7,70.o,0.0 40 0,10.5 0 ^,
4Ol[ Tppanc: Di~,AO.,AO#En,,UO 10 0,an 0 7,daEn 4 0,4Oa OO A,AaEn,4 O20 70 0,Aeen,AOa1
Diacn alulie A+ Uii,Co.4 0o,1 J0.,,L.L 10 0,0.(,ET.0 * 4 0,Cu.t Oo 7,Y0.,Cu.5 Oo,J0.(,T0.c
Tvui nippanc. Acian M,Co.L 4A E,D YU. 7 4 2,,L.o 1 5,0.,51.0,Co. 49 ^,J0. 1 9,CU. 412 0,JU. 1 0,0 6
TOic4oTo Not Hispanic,Fn? C 14 €,3 4 # 5 13,,naL 4 4,F 0 1 1,J0 2,ALrn 12 5,Ai 12,Fie 13 0,11,Aan 0 5
 Hispanic or Latino,18,4 0.9,,7.8,0.7,-0.6,13.1,0.7,13.2,0.6,0.1
