﻿0,1,2,3,4,5,6,7,8,9
,3 Hours,,,6 Hours,,,12 Hours,,
,MTI-MMP 1SEM,MMP-V + SEM,18S rRNA SEM,+ MTI-MMP 2 SEM,MP-M+ SEM,18SrRNA * SEM,MTI MMP 1 SEM,MMP-M + SEM,18S rF SE
atrol,m + 006,Do + 0 44,,14 on + CB,,04,Lo + 0.08,4o +0.08,
SF-0,"0.52 _ 0,06","1+10,c3","4.35 _ 0,","4 0.96 _ 0,08","14 _ 0,06",4.35 4 0.16,"0,8D _ 0,04","0.95 _ 0,08",L34
,"0.58 _ 0,06","07+10,01","L.10 $ 0,E","10 42 f0.10 0,","74 + 0,06","1.24 4 0,03",0.70 _ 0.04,"0.75 1 0,08",o
,,,,,,70 95,,,
L,,,,,,,,,
