﻿0,1,2,3,4
Status,,Sample size,Percent,Weighted Percent
Total,,39695,100 .0,100 . 0
Not interviewed,,5701,14 .4,18 . 2
"Interviewed, not",examined,2683,6 . 8,7 .5
MEC examined,,3081 8,77 . 6,73 . 4
Home examined,,493,1.2,0 . 8
