﻿0,1,2,3,4,5,6,7
,N (% completed),CPU care,Routine care,Difference Unadjusted,95% CI,P-value,p
,,,,,,,
,,,,,,,
Physical functioning,654 (96.3%),74.1,66.2,7.8,3.8 to | [.9,<0.00|,0.025
,,,,7.6,3.6 to |/.5,<0.001,
,654 (96.3%),74.6,67.0,7.6,3.2 to /2.0,0.00/,0
Role-physical,,,,6 8,24to U 2,0 002,
,638 (94.0%),54.1,46.0,8.2,13 to [5.0,0.02,0
Role-emotional,630 (92.89),,,70,0 4+0 /3 6,0.039,
,,63.9,60.2,3.7,-3.0 to /0.5,0.28 1,0
Mental health,653 (96.2%),,64.4,3.9,-2.8 to /0.5,0.256,
,,69.|,,4.7,1.3 to 8.2,0.007,0
,649 (95.6%),,47.|,5.2,1.9 to 8.6,0.002,
Vitality,,52.6,,5.5,1.8 to 9.2,0.003,0
,,,62.0,5.8,2.2 to 9.3,0.002,
Pain index,655 (96.5%),66.4,,4.4,0.2 to 8.5,0.04,0
,,,,4.3,0.2 to 8.3,0.041,
General health,651 (95.9%),59.7,51.7,8.0,4.6 to |1.5,<0.001,0
,,,,8.|,4.6to |L.5,<0.00|,
