﻿0,1,2,3,4,5,6,7,8,9,10,11,12
group (yrs) Age,Race,,,,,,,,,,,
,Ameri,can Indiar,I/Alaska Native,,Asian/ Pacific Isl,ander,,Black,,,White,
,No:,Rate,(954 CI),No.,Rate,954 CI),NO.,Rate,(954 CI),No.,Rate,(954 CI)
wvomen 45_54,19,,,109,10 4 (8,4_12 3),875,31 3,(29 3_33 4),1 856,10 4,(9 9_10 8)
 n 55_64, 22,16 2,(10 2-24 5),S 202,Snn U 28 8 (20,ALn d 4 18-32 7),l 1.090,nen 61 1,A _ dn (575-647),A 3 307,Snn 24 1,AlI 4dn (23 2-249)
65_74,55,78 8, (594-102 5),322,80 8 (73, 2 0-896),1.565,148 9, (141 5_156 3),6 918,79 3, (77 4-81 1)
75-84 ,99 ,267.6 , (217.5-325.8) Un,669 , 284.2 (262 , .7-305.7) 5 ,"2,701 ",415.6 , (400.0-431.3) n  ," 21,943  ",321.5 , (317.2-325.7) >  
285,TUo,048.1,(524.1-1013),621,IK0 (n1S,).9-838.2),"2,9u |","T,ubus5","(1,02i.9-1,0y9.|",") 35,098","T,02.2","1,09u.8-1,113._ 7 ^ ."
Tolai Men,J0|,005.,Too.-/U.o1,W925,11 4(74,"00-01,1",9'2,"40,",7(130.-142.31,"oj,/Z2",T90.,{on-in).zi
TCi 45_54,33,16 3,(11 2_22 9),126,134,41_15 8),1 044,43 5,(40 9_46 2),2 279,12 8,(12 3_134)
55-64,44,35.0,l 2n (25.4-47.0),220, 36.3 (31, 45-41.1),1.523,105. 9,A l (100.6-111.3),2n1 4.110,31.5,le F (30.5-324)
65-74,50,82.9,(61.5-109.3),357,108.9 (97,6-120.2),"1,644",218.7,(208.1-229.2),"7,312",97.1,(94.9-99.3)
75-84,48,174.3,(128.5-231.1),477,294.9 (268,3.5-321.4),"1,741",471.1,(449.0-493.2),"16,041",338.5,(333.2-343.7)
285,27,344.5,(227.0-501.2),417,865.9 (782,2.8-949.0),987,882.0,(827.0-937.0),"14,311","941,3",(925.9-956.7)
Total,202,47.6,(41.1-54.2),"1,597",76.7 (73,10-80.5),"6,939",136.9,(133.7-140.1),"44,053",98.8,(97.9-99.7)
