﻿0,1
Tol Advanced Nursing,8B
Sclence and Medicine,34
Itive Hezleh Research,30
4l o( Clinical Nursin,22
m Journal of Nursing ,15
rNursing,44
rch in Nursing and He,
ery,10
heaith Nursing,Ju
Practice Advances in ,9 8
Jnurnal nt Gencrl Pra,
,
 LL6 'of Nursing Scho,8
,
Tof Pediatric Nursing,6 5
,
ol Family Pelctice,5
,
,
es of Pediacrics and ,3
ne,
Jian journai Ot Nursi,
"an,ourni 01  Udiic He",3
tclcgy Review Trics,3
,
ative Healch Care,3
2d Nursing Research T,
tion 5 Sdl,
LtaGni O iLia ican Jo,
oi cmeteency # ieuich,
5 of Internal Nedicin,
Jllan and New Zealand,
(cncenjoudlo otleunc ,
(anaoian cdica /ociat,
ces Care,
7 iu Slettiily,
ationai qounnal OiOen,
,
,
