﻿0,1
0 pe releasea Witn ne,Y[ DLGGCio 4 ##iTOo g
esponse rate in Flori,44 Iunch); number of 
F~~~ U Ati je  Cte [C,Results for the origi
Aood. Ac BJiio6io # c,analyses follow: Jn t
"te schools, treating ",E2Li T coiiguto[ Fc L
atcb the cmnle of cch,and students eligible
Slid Sdl ll Unniel S ,all school-level fact
ovide information abo,In a regression analy
12 The characteristic,statistically signifi
ing frame were taken ,"scnoois; nign poveny,"
d from the PSS for pr,enroliment Tne secona
"les, the distribution",plus substitute schoo
compared with the dis,Scnoois Trom wnicn a 
SIS Of independence b,Uligmai ui #unblilule
and the response stat,peicemt momy ralner l
