﻿0,1,2,3,4,5,6,7
,Percent who,Average L,,,,,
,,,ess than $IC,",000 = $1","5,000 _ S:","30,000","555,000"
Student and instituti,borrowed,amount,"510.,000","4,999",29.999,"54,999",or more
Total,44.8,"S33,200",23.2,10.3,27.0,20.1,19.4
Type of degree-granti,,,,,,,
Public 4-year 44.4 31,,,,,,,
Non-doctorate-grantin,40.0,"25,000",27.3,11.3,32.4,18.3,10.7
Doctorate-granting,46.5,"33,900",24.7,9.7,24.6,19.8,21.2
Private not-for-profi,45.9,"36,600",20.3,10.3,25.7,21.8,21.8
Non-doctorate-grantin,46.1 n,"51,30u e ",24.8 Sn,8.9 Sen,215  S,21.6 S a,T7. Sn
,,,,,,,
DuCtudle-31atng,J.|,TLOJUU,1J,1 1.0,2J.0,LLN,Lo.0
"OUther 41.5 51,9Uu T.",,,,,,,
AdLIcd1 Otcttlt~ IIIC,34 3,28 700,28 1,7 1,28 0,19 4,16 5
 el  ro * Education, 34.3,S nd 23.000,ni 37.4,Sl 12.5,2 25.5, 12.9,l 1L.8
Engineering; mathemat,47.1,"47,400",19.1,8.7,19.2,19.7,33.4
Humanities or social ,52.8,"32,800",20.0,8.5,31.3,21.,18.7
Other,47.4,"28,100",21.6,14.3,28.0,22.9,13.2
Amount borrowed (unde,,,,,,,
"A   EEi1il 8r , Did n",36.0,"36,900",19.3,7.7,26.5,22.7,23.9
"Less than 55,UUU",45./,"30,30u",29.1,9.5,28.4,17.5,15.2
"35 Uuu-9,.99y",50.5,29.20u,28.0,15.0,51.0,12.9,15.
S1O.000-14.999,54.7,"28,700",25.7,16.1,23.6,19.4,15.3
"S15,000 or more 58.4 ",,,,,,,
,,,,,,,
degree by 2003,,,,,,,
Master' $ degree,37.9,"19,900",30.0,13.2,33.5,18.9,4.5
Doctoral degree Firct,63.1 71 &,"43,700 60 200",18.3 4 6,7.6 2 6,21.6 0 4,21.1 23 6,31.5 50 0
A ALD_ rtrdoroiroi _~,,,,,,,
fgnest Uegree ealied ,22 ?,22 200,26 2,11 6,26 6,1A ^,11 ^
CCLCIIOfOI D cic~ Mac,Dc. 1= ^,LJiJoU 22 00o,Dh 22 0,ALL+0 412 6,o.o 21 0,CLAA 22 7,LIA 5 0
1 14Dt#I D ucotc~ Doc,CnD!I 64 3,Lloo 44 100,L242 21 4,4 480 9 6,Dn' ~ 14 7,L144 19 1,D '€ 35 2
"nnn L~0"" First-profes",Sln 78.8,Usl 75.500, 2.0,n L.1,4 8.2,AeA 21.6,"A""n"" 67.1"
