﻿0,1,2,3,4,5,6,7,8
Percent Composition,F,la,Gly,,Arg,,V,al
,Genes E Level **,,Genes,E Level,Genes,E Level,Genes E Level,
1  3,,9 |E,33),2 09,EA3,3 70,EA3,3 70
1 ~ 9,1 9 2 43,2.| 9 2 Oc,999,Z.ol 9 30,9T9 1 790,"9,iu 9 0 /",99 1 790,"9,u 9 0 /"
9 ~ 9 5 _ 7,1uo9 1204,Z.u9 2.75,1 1oo 1176,"2,7 3.61",1 / Zo 798,2.00 285,1 / 2o 798,2.00 2.85
7 _ 9,613,4.86,510,6.14,194,7.52,194,7.52
9 _ |I,242,9.19,155,7.39,55,19.58,55,19.58
11 = 13,61,15.19,33,12.64,23,17.30,23,17.30
13 _ 15,30,15.81,15,12.73,5,29.86,5,29.86
> 15,32,16.52,7,13.54,2,12.85,2,12.85
