﻿0,1,2,3,4,5
IId (okaci,whitelly A,~corrielele,15.322,25.9,4y52i2s9
Jeurudes acodioe,whitelly-B,~corriplete,"15,080",28.0,4Y521626
rias kellio &ridrovop,Fwhitelly C,comielele,44.496,18.7,4Y572539
rochiton oceris,whitelly-D,comolete,15.383,22.|,4Y572538
eurodes vabora; Jrum,whltefly-Y,comelete,18.414,27.7,Ay52i26s
rodkus dugesi,whltefly-Y,complete,"15,723",13.8,4Y52izsi
Ybswlla venusta,psvllld,comclete,1471,26.3,4Y278317
aphis grarrunun,~aphid,complete,"15,721",16.1,AY53ij9|
Isio orgentifoli,~whitelly-A,cIB-COWI,4.796,21.2,AY52i257
isio sp.,hitefly-A,X2SCoI,985,194,AY572b+5
,,,,,
,,AEcl = can,,,e
Pacedid r` Jl, d,Aedi ~Coi,,, Y571768
,,3 CtRCom,,200,Y648941
,,,,,
n,,S CR/25,3077,,@
,d, ER /25,,263,Ay6oibo 
,,UR[7c,,,Raq
,,,,,PO
LeL,Al,Aee,FeL,t,t
Tplb Mobs,pnta,Aortd ( 2J,907,U,oyon7
