﻿0,1,2,3,4
ase (incubation perio,Disease onser (Interv,Diagnosis date (Inter,Lab result date (Inte,Date 0f frst report t
tosporidiosis (7 dav ,,,,
an clme Interval (day,22,14,13,
~speciiic reporong rn,2-149,1-73,2-58,
cises,4130,956,1825,
scates,,24,,
"thin /, 2 ircubacion ",,,,
oli 0I57HH7 incubatio,,,,
rime inrerel (davs',,,,
~specitic reporong ra,2-81 6991,2 44,1-53 7706,
,,,,
TCDCT,46,,39,
,,,,
"Jtit18 A, Jcutc (Ju Q",,,,
an Limne interyal(cny,2i,TB,,
PeCMC Teporong Tnge,279+ 2l[Jo,Leou,LI7J 4L00,
Ain,F,,Et,
Ullea,,IAD,,
"Liti, 2 ucubalctpenou",,,,
Ieucucli Uiseie  + Ul,,,,
I Cc I-Ceota,Ai,,n,
Snnel cises,"3,804",450,"1,255",
Slates,u,OU,,
"(nini,2 ucuoacicn ibe","23i, 3770",Lo 4107o,23k4,3 ^
ussis (20 incubation ,,,,
an cime interyal (day,40,JI,,
~pcriic rcporong rngr,4712,AFiVo,47170,
Duc,Ao ed,Aa,Vod,
{000S,J0,40,,
"thin !, ? irrubaticn ",,,,
,,,,
an Lme Interval (dys),17,7,12,
reporung rnge? ~spcee,2-4,1-54,2-61,
Ce:,"47,657","5,558",~28; / 2,
3l0a,,J9,,
Li~5a9a9 ocncOS ellod,Saie=oad,=@,Cotetn,
,,,,
,,,,
Ppopeliic Teponotnie,49,J=3,F34,
L45es,"2o,0,s",Loiu,Fnous,
