﻿0,1,2,3,4,5,6,7,8
Characteristics,Peeling paint,,,,No working smoke alar,,,
,No.,(%),Unadjusted odds ratio,(95% CI),No.,(%),Unadjusted odds ratio,(95% CI
Sex,,,,,,,,
Male,"1,170",(1.9),Ref:,,"3,352",(5.6),Ref:,
Female,"1,207",(2.4),1.2,(1.0-1.5),"2,806",(5.6),1.2,(1.0-1.5_
Race/Ethnicitv,,,,,,,,
"White, non-Hispanic 1",,,,,,,,
Hispanic,311,(2.4),1.3,(1.0-1.7),1.447,(11.4),2.7,(2.4-3.17
Black; non-Hispanic,480,(3.5),1.9,(1.5-2.4),795,(5.9),13,(1.1-1.6_
Asian/Pacific Islande,38,(0.9),0.5,(0.3-0.9),212,(5.2),1.2,(0.9-1.5
American Indian /Alac,34,(A 7),2 6,'1 )_5 7),78,(10 Q,2 6,(1 5_^ ^
4[d[dliiiiil LiliL id,,"4 """" 1",Me,4'' t 1 a,Al,4!Oii,Lit, ' *~ Aa
Male,,,,,,,,
White; non-Hispanic,780,(1.8),Ref,,"1,907",(4.3),Ref.,
Hispanic,155,(2.2),1.2,(0.9-1.8),845,(1.9),5.0,(25-5.0_
"biack, non-Hispanic A",189 71,(3.4) (o 01,Z.u 0 5,(14-2.9) (o ? 1 1),4053 1 17,(73) A 6),18 1 ^,(14-22_ o 7 1 6
Asiant acmicbJianiuci,L| 20,T(.o1 (5 7),JO.o 3 ^,"T(U,-M1 (1 1_10 )1",4 | / AA,to) (12 6),TAi 3 ),(U. Fn_ (1 5_6 7-
Fd[d lallil LnilaiLai,UL,Atii,Ued,4' *' 4la,,A t /,A,AL[o Fe
Female,,,,,,,,
"wne, non-Nispanic",05 |,(Z.u),nel,,"1,05)",(4.0),hel,
Tspalc,oo,(2.0),7.4,TTU-Zu),OU |,TTu.0),2.4,(Z.U-Rju_
"DlaCk, non-mspanic Ac",2) | 10,T3.0) (1 1),7o 0 6,(7.4-201 (0 )_1 ^),09 06,(4.91 (6 0),T 1 3,(U.0-n. _ (0 %_) 0
ULadidrld[ American I,A 14,"4' "" / (3 7)",Aei 1 9,All 4+a (06_5 5),S 34,Atn a (9 1),Ut 2 0,Atl AlaL (0 9_4 3
Annual income (S),,,,,,,,
,,,,,,,,
"224,999","1,909",(4.0),5.4,(2./-4.2),"3,0/9",(i2.0),5.44,"(4.0-0.5,"
"2),Uuu-49,999 50.000-",059 332,(2.1) (1.8),7o 1.5,(1444-2.3) (1.1-2.0),Tozo 752,(O.2) (4.1),25 1.6,(2.1-5.u. (1.3-2.0
775 00q,399,(1 2),Ref,,843,(2 6),Ref,
Education level,,,,,,,,
Less than high school,446,(2.9),1.5,(1.2-1.9),"1,800",(12.0),3.6,(3.1-4.13
High school diploma,636,(2.1),1.1,(0.9-1.3),"1,962",(6.5),1.8,(1.6-2.1_
'college education An,"1,295",(2.0),Ref:,,"2,396",(3.7),Ref.,
U.S. Census region,,,,,,,,
Northeast,648,(2.8),1.5,(1.2-2.0),"1,093",(4.9),0.7,(0.6-0.83
Midwest,980,(3.3),1.9,(1.5-23),"1,694",(6.0),0.8,(0.7-1.03
South,"1,199",(2.4),13,(1.1-1.7),"4,382",(9.3),13,(1.2-1.52
West,512,(1.8),Ref:,,"1,931",(7.1),Ref.,
Disability status,,,,,,,,
Yes,148,(4.1),2.0,(13-3.0),194,(5.4),1.0,(0.7-133
No,"2,230",(2.1),Ref:,,"5,961",(5.6),Ref.,
Total,2.378,(2.1),,,"6,157",(5.6),,
