﻿0,1,2,3,4,5
,BÁO CÁO KÉT QUẢ H Cho,OẠT t thúc,2ỘNG ngày,INH DOANH 1/12/2021,
,,M6,Thl,,MẴU SÓ B02 DN Đơn vị 
,cHỈ TIÊU,số,,Năm 2021,Năm 2020
,oanh thu bán hàng và ,01,20,523.353.809.694,490.536.372.885
,các khoản giảm trừ do,02,20,,282.390.909
,oanh thu thuần về bán,10,20,523.353.809.694,490.253.981.976
,Siá vốn hàng bán,,,480.529.953.719,"434,652 263 669"
,oi nhuân aôp về bán h,20,,42.823.855.975,55.601.718.307
,'ịch vụ Joanh thu hoa,,,166 202 505,17 376 235
,"""hi hi",,,42 22 27,207 4ro
,đó: Chi phí Iãi vay T,23,,Jt 12.543.192.777,"t,u/ . | o9 120 14.56"
,nlpni Dan nang hi phí,22 26,23 23,U99.466.240 10.713.22,786.315.745 25.012.32
u 11 . 42,Ợl nnuan [nuan [Y noa,30 31 22,24,12.633.818.647 294.06,8.212.723.233 461.402
13,ợi nhuận khác,40,,155.716.960,Jt: 9 385.718.573
14,ong lợỉ nhuan Kê toan,50,,12.789.535.607,8.598.441.806
15. 16.,hi phí thuê TNDN hiện,51 60,26,2.581.116.507 10.208.,1.859.013.456 6.739.4
17,ãi cơ bản trên cô phi,70,27,1.701,784
,,,,Nam Định 1 ngàỵ 08,tháng 03 năm 2022
,Người Iập Kế to,án tru,Wởng,CÔNG CỔ PHÂ VICEM BA,r)Giám đốc IN 0 BÌ
,Trần Thị Liên Dương,MinI,Tuấn,DUToC WAMDInA,Ìn Ngọc Hưng
