﻿0,1,2,3,4,5,6,7,8
Table 5: The number o,,,,,,,,
Percent Composition,Asp,,Leu,,Asn,,Ser,
,Genes*,E. Levelt#,Genes,E.Level,Genes,E.Level,Genes,E. Level
1 _ 3,260,981,20,14.06,249,8.69,3 1,"12,52"
3 = 5,847,3.97,1/4,42./9,1/95,5.21,264,7.85
,,,,,,,,
5 = 7,1505,3.35,467,6.20,1323,296,907,5.39
7 _ 9,657,3.10,1033,4.05,478,1.72,1202,3.41
9 = |I,117,3.15,1/18,3.09,148,1.83,645,2.06
11 = 13,32,2.38,526,2.42,34,3.15,22/,2.77
13 = 15,10,2.86,15 |,1.98,,0.95,103,1.98
15,5,1.22,32,2.57,9,1.14,87,3.16
# Total number of gen,,,,,,,,
