﻿0,1,2,3,4,5,6,7
,,,i,,Leon,,
,,,,,Wiloiozt,,RNA iso
,Ooot,Na,N,,Inc,Na,7
,,,,,,,
,,79,,,IDc, Poa,
,,,,,,Pos,
,Ln6itt,,,,,,
,~O66t+,,,,,,
,06at*,,,,IDC,Po,
,,,,,,,
,,,,,,,
,t,,,,,e,
,4J/,A,Id,,~,440b,
,J0/ _,DU,,,JD_,74ez,
,To,y,,,IJ_,Od3,
,Wd|,U,,,UCLC,I03,
,499o,JD,Ja,,UICC,a,
,AOd>,Ia,Tic,Jc,JD_,J,
,TJro,ODd,FLA,,DcTIC,o>,
,4977 |,Di,,,JD_,JNA,
,Touti,d,,,JDC,JNNA,
,1614[,64,,,DC,Fos,
