﻿0,1,2,3,4,5,6,7,8,9,10,11
30%,143.99,I,,,,,,,,,
209 10% 096,23,17.39 8,10.39 3 :,"6,0%6 n 29",F 6.836 EEE 9,[ 65.09 EIi 32,3.996 88,POS 3.79 9,2.996 =3,lo.6%6 9,0.6%6 3 6
,2 3 28 1 2 8 ~,5 9,#,22 5 1 8,5 1,2 9 1 1,83 1 25 1,1,62 L,: 6,:3 8 1 T 1
