﻿0,1,2,3,4
Fctor,99? Scorr,99 2 Rank,JCorc,7007 Rack
Locotenioy the trach ,,,,
,,,,
,,,,
Iherc too Man; chroni,,,,
,,,,
NoL enough pulmorary ,14 = | 1.2 = |.0,,0.9# 12+ ||,
,0.4+ 09,,,
Some of the Pulmcnary,0.7 = 08,,0.8 + 1.0,
afford belng 2 fellow,0.7 = 1.1,,0.4 + 0.8,
The Pulmonologsus Nrk,0.4 = 0.6,,0.4 + 0.7,
don[ enloy che cystIc,0.3 = 0.6,,0.6 + 0.9,
Too feve pulmonary Jo,0.3 + 05,,0.0 + 0.24,
oon(enioy the isthmz ,0.2 = 05,,04 4 0.8,
Fulmonologists don't ,0.2 = 05,,0.1 1 0.1,
experences Puimonaryr,0.2 = 04,,03 4 0.8,
