﻿0,1,2,3
efal (19961,Niorantrone,ORTC Olo-Jn: Pzin Nti,Imnroved nzin mood & 
al_(200in,Dorctaxcl,Prcscnc Pain Inccnsic,Imnroycd nain
Idi ct ?l (19991,Dorctaxel,Bricf Pzin Inyrntory,Imnroycd nain
,,,
"]t Is cc a/, (2003)",Dorctaxcl,d EORTC QlQ-30; Pain ,"ueeun Improvcd rolc, "
et aL (20d01,Suramin,Brief Paln Inventory,Improved pain
ec a/. (1996),Cisplauncerboplatin,Rating scale,Improved Pa n
ec2/. (19991 .,Doceuaxel,Phxsiclan-graded even,Presence of fugue dos
Iton et al. (2003),Vinblastine,Physician-graded even,Presence of fugue dos
Indel eta (Zuvbi,"""cpinudictn",PeLY-JU,Reduced Tacigue: tins
