﻿0,1,2,3,4,5,6
,,distbution,Ievel,detribubcn,,
ntirta,0.26,0.25,0.13,0.13,0.24,bri
rla,0.23,0.21,0.15,0.14,0.27,post
Fia,0.23,0.20,0.15,0.14,0.28,Pose
Jln,0.26,0.17,0.17,0.13,0.27,brl
um,0.24,025,0.13,0.14,0.25,brl
ria,0.25,0.22,0.13,0.13,0.27,bri
Ida,0.25,0.17,0.16,0.13,0.29,brl
,0.20,0.21,0.15,0.15,0.29,brl
1,0.27,0.2i,0.15,0.12,0.25,Pose
a Rica,0 28 ,0.25 ,0.12 ,0.12 ,0.22 ,bris
Ita,JU2),JL,JU.J,J,JU2J,Di
T},70 25,02,701+,0s,075,Pos
h Kepublic,70 2,04,01 +,0,"70,24","Drich, P"
Tart,0 /6,021,~015,012,"0,25",pos
,J0 40,L4,Ua7,u4,"""D",Pos
,COed,LtlL,Cotn,Aee,AL,Ai
,e,n,t,ti,t,at
1 nany,t 0.24 Jc,n 0.22,t 0.13,n 0.14,t 0.28,u T bric
, E,,t,n,t,E
ary,70-2,LO,U-T6,0-S,(0.2i,Pose
Md,Q-zo,LLU,70.4,JuS,CU.2D,~Di
4es,COid,CL-f4,Joao,Cold,J.a,D
,t 0.24,l 0.23,tt 0.14,ni 0.14,tt 0.25, brl
In,0.26,08,0.16,0 12,0.27,bris
'Duin,COLD,CaL,JOed,Cld,Ald,Po}
4,J02t,0y,70.15,U2,U.ju,Dric
Jania,0.24,0.23,0.15,0.13,0.25,Pose
mbourg,"0,25",023,0 13,013,"0,76",telcpt
,,,,,,
Prco nrlzeds,0 19 {0j4,018 Lola,"0,17 0i7",0 17 La,"0,29 nJR",bri Frict C
,,,,,,
Led,JOfii,CL,ODao,JUd,C.4D,Dm
I,Co-LD,ADiO,JUad,Jin,Cl,Dm
H4,JOIt,LL,JUet,JUL,COE',Dm
UEALI,J0-4,ALLJ,JU- >,705,"J0,2J",Dri
Iblic DIKDre),JU-2B,0E,70.+,0. 2,0.25,Dric
4nia,7023,ULL,70.14,0.[5,70.26,DFc
an Federjucn,0.23,D,0-/,02,0.29,DI
,=t 0 77,l,t,=,t Ood,n
H enan, 0 77,t 024,= 0 /5,1 6S,tt 0 77, DO
,,,,,,
Jrg Fapc,,,,,0 76,hri
,,023,0 (7,,0 27,
in,026,,0 14,,0.276,bri=
h Ucans,,,,,78,
,,,,,,
i,,,,,,
St tite litele,CUt,Ai,Cte,AeLi,C,M
