﻿0,1,2,3,4
Category,1992,,2002,
,+PF,-PF,#PF,
"Gencral pediatrics, n",,145*,,29
Academic zeneral pedi,,5,,~8 5
Acdemic non-pulmoniry,3,12,2,16
Acdemic pedlitric pul,,,,
Non-jcademle non-puli,,15,,
Non-aradcmic padiarri,0,0,0,0
Non-pcdiatric mccical,,,0,
Non-medical vocation,0,,0,0
Unknown,,2,,
