﻿0,1,2,3,4
"Fictor""",1992 Score,1992 Rarik,2002 Score,"""2002 Rank"
Idon [ enlov the trac,20= L,,1.9 +43,
 Iwant [0 enter cener,1.9 + |.2,,1.8 $ 43,
Idont cnicy ccrtzin p,161|1,3,12+4.,
Thec,,,,
u eu acothcr (~Ilowsh,502,,3,
,,,,
 sts Neral,,,06+0 94,
onnan Udcn - cnicythc, 0,,ee,
i Ae onrthink pulmona,e 09 _ 09,,0 8,
ne@ Scme olche pulmon,e 0.7+08,o, 08 + L.0,8
Jntd,,,04 + 0.8,
The oulmonologl,04-06,,04 + 07,
i Idon - enlcy rhe cu,03 -0 6,,06 + 0.9,
So t Too fevr nulmcna,03 + 05,,00 + 021,
 t Su  Idcn t enioy c,0.2 +05,15,04 + 0.8,
u So Pulmonolocists d,0.2 +05,5,01 + 0.4,16
e  e Poor experiences,0.2 +0.4,5,0.3 + 0.8,15
