﻿0,1,2,3,4,5,6
,,,,Unadjusted Adjusted,,
,,,,,,
cal funccioning,654 (96 Jr),74.1,,78,38t0 |/.9,<.0oi
,654 (96.37),,,7.6,3.6 to |/.5,<0.00|
1 functionirg physica,,746,67.0,7.6,32t0 /2.0,0.D0|
,,,,6 8,"240 11,2","0,002"
,,"54,1","46,0",8 2,"1,3to /5,0","0,02"
,630 (92 83),,"60,2",70,"045 (J,6","0,039"
cmational l health,630 (92 84) 653 (96.2,"63,9",,"3,7",3Dto I0 5,"0,28 |"
,,,,3 9,228 to 105,"0,256"
,,69.|,644 47.1,47,13t0 8.2,0.007
,649 (95.634),,47.1,5.2,1.9 t0 8.6,0.002
,,52.6,,5.5,1.8 t0 9.2,0.003
,,,,5.8,"220 9,3",0.002
ndex,655 (96 531,,,,0 2 [0 8 5,
,,,,,,
,,,,,t,n
