﻿0,1,2
3=leeLlit== ;9 24,Cardiac sadiumlGalciu,[38] [39]
Sn ubregukited by inj,"""6 ""pepoue Coipice Td","L""]"
,Janin (showi in Fig: ,F1
LS relled [0 rerve 4e,'L novei proletn expr,74+
S,Aii Malurition Fctor ,145
13,clz-deriyed neurite-p,"[48,"
16,Jippocampal cholinerz,'50
1530,"1EGF 5, slit homolog ",[5/]
4772 7c07,erallcthionemn >,[525
1 3087 795,EL=[t  SEL= Nerve gro,"Et [56,5 [58"
JU,Jeceploi-inreo Piolei,[o ]
AaU,uemal Mocoteuton,4o
97,Ytoptctazmin inicrcti,[65]
s 3I,arhoxypcptidasc E,"[64,"
16,Jcuronai oifctomcdin-,[66]
40,Sd-95ISAP $0 associat,[67]
80,{ABI4 IGTPuse Rab /4),68 |
6247,'TK40 homoloz (tyro I,[69]
54,C65 5 Syniptonermal c,[70j
'855,,
