0,1
brovgei Verston,Document Nouey Suppor
Mlernel Exdkte,Quirks Made Sterarde 
Iltuelet[,Quiks Made IE7 Moue I
Iolernel Exoen,Quirks Made IE7 Mude 
Iletnel Excker,Quuks Node 1E7 Mod Ie
Iolernel Exoen,Quiks Hcde IE7 Mode I
,IE7 Moue IEB Mode JE9
,EjueHTNLHde
