table column 0.9997017979621887 302 33 339 189
table column header 0.9539046883583069 30 33 339 78
table row 0.9989810585975647 30 119 340 156
table column 0.9999769926071167 84 33 234 189
table column 0.9992486834526062 255 33 301 189
table row 0.9994677901268005 30 77 339 116
table column 0.9996575117111206 29 32 81 190
table 0.9999396800994873 30 32 340 189
table row 0.9990838766098022 29 155 341 189
table row 0.9988471269607544 30 33 339 79
