table row 0.9998453855514526 35 139 604 152
table row 0.6711096167564392 35 100 604 114
table column 0.9999954700469971 285 49 406 164
table row 0.9942307472229004 35 86 604 101
table row 0.9973042011260986 35 67 604 87
table column 0.9998774528503418 35 48 176 164
table row 0.9977251887321472 35 125 603 138
table row 0.9994075298309326 35 49 604 68
table column 0.999964714050293 406 48 531 164
table column 0.9999178647994995 531 48 604 164
table row 0.9992160797119141 35 152 604 165
table column header 0.9987819790840149 35 48 604 67
table column 0.9999575614929199 176 48 280 165
table row 0.9988580942153931 35 111 603 125
table 0.9999985694885254 34 48 604 164
