table row 0.9995452761650085 38 194 643 207
table spanning cell 0.9977553486824036 523 49 643 79
table row 0.9995030164718628 39 129 643 142
table column 0.9999933242797852 447 49 522 219
table column 0.9998601675033569 317 49 385 219
table spanning cell 0.9996613264083862 377 49 521 80
table column 0.999944806098938 388 49 453 219
table row 0.999906063079834 38 109 643 129
table row 0.999699592590332 39 81 642 108
table row 0.992825984954834 39 142 643 155
table column 0.9999786615371704 38 50 108 218
table spanning cell 0.9923220276832581 242 49 387 81
table row 0.9997394680976868 38 181 643 194
table column 0.9999722242355347 248 49 315 218
table row 0.9995774626731873 39 49 643 81
table column 0.9998397827148438 524 49 587 219
table column 0.9999650716781616 166 49 247 219
table spanning cell 0.9893028140068054 110 49 244 82
table column 0.9999266862869263 587 49 644 218
table row 0.9989784955978394 38 207 643 220
table column header 0.9961183071136475 39 49 643 110
table column 0.9998254179954529 110 49 166 219
table row 0.9996399879455566 38 168 643 181
table spanning cell 0.9980113506317139 38 49 108 109
table row 0.9985994696617126 38 155 643 168
table 0.9999986886978149 38 49 643 218
