table column 0.9990744590759277 242 49 282 120
table row 0.9997870326042175 34 93 442 107
table column 0.9996789693832397 338 50 377 120
table column 0.993777871131897 272 50 310 120
table column 0.9998266100883484 297 50 340 120
table row 0.9993507266044617 34 66 442 82
table column 0.9992948770523071 33 49 77 120
table row 0.9996402263641357 34 80 442 94
table row 0.9996393918991089 33 49 442 66
table column 0.9993674159049988 376 51 417 119
table column 0.9998787641525269 174 49 243 120
table column 0.9947633147239685 414 51 444 119
table row 0.9997437596321106 33 107 442 121
table column header 0.9969525337219238 34 48 442 64
table column 0.9999949932098389 80 49 176 120
table 0.9999781847000122 34 48 442 121
