table column 0.9993619322776794 581 56 641 333
table row 0.999237060546875 73 227 958 277
table column 0.9998006224632263 762 57 818 334
table column 0.9896851778030396 640 57 701 330
table column 0.9980170726776123 702 56 762 333
table row 0.9978823065757751 71 132 959 179
table column 0.9999587535858154 72 56 217 333
table row 0.9783995747566223 72 175 957 226
table column 0.9992507100105286 397 56 457 332
table column 0.999403715133667 325 56 390 334
table column 0.9708077311515808 455 56 513 333
table row 0.9217808842658997 71 57 959 132
table column 0.9991505146026611 818 57 878 332
table column 0.999835729598999 274 56 333 333
table column 0.9974863529205322 522 55 581 333
table column 0.9993382096290588 883 56 962 334
table row 0.9990725517272949 72 277 958 332
table column header 0.9983717799186707 72 57 959 132
table column 0.9995570778846741 216 56 275 334
table 0.9998698234558105 71 56 960 334
