table row 0.9346069097518921 28 176 567 191
table row 0.8993239402770996 28 253 566 269
table row 0.9957028031349182 29 115 566 132
table column 0.9999114274978638 250 43 362 297
table row 0.9994663596153259 28 146 566 162
table row 0.9957323670387268 29 99 567 115
table row 0.9971194267272949 29 78 567 99
table row 0.9989194869995117 28 131 566 146
table column 0.9940998554229736 29 42 119 298
table row 0.9765034317970276 28 193 567 208
table row 0.9125030636787415 29 238 566 253
table projected row header 0.9406591057777405 30 266 565 296
table spanning cell 0.7157891988754272 114 84 390 102
table projected row header 0.6231939196586609 29 275 567 300
table row 0.957072913646698 29 40 567 75
table column 0.9990574717521667 364 42 497 298
table column 0.995614767074585 500 42 566 298
table projected row header 0.6982568502426147 27 277 568 303
table row 0.80328369140625 29 267 566 298
table column header 0.9734058380126953 29 42 566 126
table spanning cell 0.9818905591964722 361 97 568 114
table row 0.9838634729385376 28 161 566 176
table projected row header 0.7826672196388245 28 278 569 305
table column 0.998603880405426 126 40 264 297
table row 0.9818770885467529 28 221 567 237
table spanning cell 0.832551896572113 30 68 117 121
table spanning cell 0.6518306136131287 29 37 567 68
table spanning cell 0.8464186191558838 114 68 566 97
table row 0.9929627776145935 28 207 566 222
table 0.9999982118606567 28 41 566 297
