table row 0.9997445940971375 37 283 381 306
table row 0.998839795589447 37 397 381 419
table row 0.9997183680534363 37 101 381 123
table row 0.9998980760574341 37 238 381 261
table row 0.9998782873153687 36 261 381 283
table row 0.9997116923332214 37 146 381 170
table row 0.9995996356010437 36 78 381 100
table row 0.9995978474617004 36 55 382 78
table row 0.9979427456855774 37 123 381 145
table column 0.9999887943267822 37 37 228 437
table row 0.9998713731765747 37 306 381 329
table row 0.9996287822723389 37 375 381 397
table row 0.9992398023605347 37 37 382 54
table column 0.9986333250999451 239 37 316 437
table column 0.9953429698944092 318 37 381 437
table row 0.9978684186935425 37 419 380 438
table column header 0.9987186193466187 37 37 381 55
table row 0.9985472559928894 37 169 381 192
table row 0.9992440938949585 37 217 381 239
table row 0.9984490871429443 37 352 381 374
table row 0.9985589385032654 37 191 381 214
table row 0.9993423819541931 37 330 381 352
table 0.999991774559021 37 37 380 437
