table row 0.9948660135269165 59 330 587 375
table row 0.970183253288269 59 139 586 168
table column 0.9998601675033569 328 42 431 416
table row 0.9442815184593201 58 197 587 226
table row 0.9435708522796631 59 109 587 139
table row 0.764413058757782 60 79 586 110
table row 0.9917058944702148 58 167 587 197
table column 0.999372661113739 60 42 151 416
table row 0.9771803021430969 59 214 586 243
table row 0.9976245760917664 59 302 587 330
table row 0.9249866008758545 59 42 586 80
table column 0.9996907711029053 430 42 507 416
table column 0.9861729741096497 225 43 319 416
table column 0.9987045526504517 509 42 589 416
table row 0.9989169836044312 59 374 587 416
table column header 0.952520489692688 59 43 587 79
table column 0.9989712238311768 152 42 228 416
table row 0.998297393321991 59 273 587 302
table projected row header 0.739716649055481 61 78 585 110
table row 0.9952067732810974 58 244 587 273
table 0.9999237060546875 59 43 586 416
