table row 0.8541895151138306 68 755 1113 785
table row 0.9476788640022278 69 902 1114 1013
table row 0.9356306195259094 69 264 1113 297
table row 0.7416670322418213 67 703 1113 733
table column 0.9680339097976685 639 60 722 1095
table row 0.6532509922981262 69 729 1112 758
table column 0.7982850074768066 590 62 658 1099
table row 0.6931793093681335 66 625 1115 656
table row 0.9437345266342163 68 221 1115 265
table row 0.856394350528717 70 141 1113 230
table column 0.9995391368865967 68 56 567 1101
table row 0.9198983311653137 67 373 1113 412
table row 0.5618482828140259 68 527 1111 557
table row 0.9164680242538452 69 776 1111 808
table row 0.5825570821762085 69 403 1112 452
table row 0.8949020504951477 68 297 1114 327
table row 0.9292024374008179 68 859 1112 935
table row 0.9049822688102722 66 327 1114 363
table row 0.7891852855682373 68 558 1112 588
table row 0.7308650612831116 71 63 1113 144
table column 0.9962517619132996 714 62 918 1096
table row 0.6164031624794006 72 81 1108 177
table column 0.9906713962554932 910 63 1113 1098
table row 0.5703999400138855 65 681 1115 711
table row 0.5762999057769775 68 481 1110 511
table row 0.9342851042747498 67 1005 1115 1101
table row 0.7909101843833923 66 617 1114 645
table column 0.9973984956741333 157 59 593 1097
table row 0.8750893473625183 68 828 1113 887
table row 0.6195032000541687 65 433 1113 481
table row 0.7700904011726379 66 506 1113 536
table row 0.8639784455299377 68 812 1112 844
table 0.9999707937240601 67 64 1116 1097
