table row 0.9327561259269714 65 893 1129 923
table row 0.8726013898849487 65 748 1128 779
table spanning cell 0.7529613971710205 78 238 531 286
table row 0.8578985929489136 65 1047 1129 1090
table row 0.5004342794418335 62 260 1129 294
table row 0.7358536124229431 64 140 1128 174
table row 0.9399213194847107 65 836 1127 867
table column 0.9908654093742371 700 55 917 1153
table row 0.7241588234901428 65 463 1127 493
table row 0.8850826621055603 64 869 1128 899
table row 0.739549458026886 63 341 1129 376
table row 0.5603062510490417 65 373 1127 406
table column 0.9932859539985657 616 57 696 1150
table row 0.76968914270401 65 106 1129 140
table row 0.7708157300949097 65 520 1128 550
table column 0.99689781665802 66 52 434 1157
table row 0.780969500541687 63 228 1130 261
table row 0.8311774134635925 65 918 1127 949
table row 0.8862408399581909 65 170 1128 205
table row 0.8160496950149536 65 354 1127 388
table row 0.8394686579704285 65 692 1128 727
table row 0.8327562808990479 65 1016 1130 1053
table row 0.7324110865592957 66 611 1128 642
table row 0.6709946393966675 63 368 1129 400
table row 0.6569986343383789 65 669 1127 710
table row 0.7265704870223999 62 204 1130 236
table row 0.686724066734314 64 641 1128 672
table column 0.9965469241142273 918 57 1101 1151
table row 0.588972806930542 64 655 1128 688
table column 0.9950360655784607 535 59 633 1149
table column 0.9133782386779785 1074 63 1119 1135
table row 0.5296105742454529 66 451 1127 482
table row 0.5687652826309204 66 768 1127 800
table row 0.9458692669868469 65 1090 1129 1157
table row 0.8425143361091614 65 418 1127 450
table row 0.8532348275184631 65 818 1128 848
table column 0.9683042168617249 232 57 536 1155
table row 0.8929701447486877 65 980 1129 1019
table row 0.6160653233528137 63 434 1129 465
table row 0.5753429532051086 67 579 1128 609
table row 0.888276219367981 63 387 1129 418
table row 0.6653587818145752 64 289 1128 322
table row 0.8075092434883118 62 318 1129 353
table row 0.5213633179664612 64 480 1128 509
table row 0.8524050116539001 64 950 1129 985
table spanning cell 0.7414705157279968 64 971 403 1159
table 0.9999314546585083 64 57 1129 1152
table row 0.8347154259681702 64 549 1128 579
