table spanning cell 0.5567255616188049 468 132 543 644
table row 0.8108125925064087 48 210 885 249
table column 0.9986547231674194 745 51 886 839
table column header 0.6050930023193359 46 50 887 155
table row 0.7935525178909302 48 753 886 803
table row 0.8174588084220886 48 672 886 721
table column 0.9987899661064148 65 51 443 839
table column 0.6796597838401794 424 52 479 836
table row 0.8116780519485474 48 308 886 337
table column 0.9944356679916382 567 51 746 838
table row 0.8068295121192932 48 613 886 670
table row 0.8567870855331421 48 254 886 282
table row 0.5382040143013 48 341 885 371
table row 0.7359570860862732 48 155 885 221
table spanning cell 0.5050503015518188 427 180 483 648
table column 0.6112912893295288 47 51 62 839
table row 0.5745809078216553 48 464 886 511
table row 0.5989946722984314 47 499 886 564
table row 0.8232042789459229 48 281 886 310
table 0.9999988079071045 48 52 887 839
table row 0.769867479801178 48 798 886 838
table column 0.9655743837356567 487 51 559 838
table row 0.818528950214386 48 51 886 166
table row 0.5979040861129761 48 428 886 467
table row 0.7268556952476501 48 719 887 752
table row 0.7672488689422607 48 553 886 623
