table row 0.9951412677764893 77 376 1437 419
table row 0.9844954609870911 77 174 1437 216
table projected row header 0.8906158208847046 78 290 1438 334
table row 0.984431803226471 77 130 1437 174
table row 0.9691229462623596 77 86 1436 130
table row 0.9836556911468506 78 216 1437 260
table column 0.9996033310890198 78 49 655 458
table row 0.9691876769065857 77 334 1436 377
table row 0.9596278667449951 77 50 1437 86
table column 0.9162962436676025 661 50 1165 457
table column 0.9967400431632996 1207 49 1437 458
table row 0.9842970967292786 78 419 1437 458
table projected row header 0.8091891407966614 76 254 1438 293
table column 0.5787118077278137 563 50 833 456
table row 0.9547337889671326 78 292 1437 334
table projected row header 0.6504535675048828 78 86 1437 130
table projected row header 0.7402530908584595 76 49 1438 86
table row 0.6612408757209778 78 252 1437 292
table 0.999854326248169 77 49 1437 458
