table row 0.5869001746177673 55 544 430 589
table row 0.7733187079429626 53 383 432 429
table row 0.7423813343048096 53 347 432 394
table row 0.7225189805030823 54 149 431 190
table row 0.6911154389381409 54 221 431 259
table column 0.999974250793457 275 59 431 1453
table row 0.9412468075752258 54 189 431 222
table row 0.8968469500541687 55 254 430 286
table column header 0.8957392573356628 55 53 430 137
table column 0.9878476858139038 85 54 276 1453
table row 0.5022924542427063 53 400 432 436
table row 0.7564848065376282 54 120 431 166
table row 0.7731720209121704 54 317 431 355
table row 0.5567659139633179 54 578 431 615
table row 0.6964839100837708 54 95 431 135
table row 0.5856831669807434 55 509 430 556
table row 0.6173719167709351 55 627 430 660
table row 0.6274625062942505 54 428 431 463
table 0.9999990463256836 54 56 431 1453
table row 0.7628854513168335 54 296 431 330
table row 0.7453661561012268 50 904 434 1455
table row 0.9314101934432983 54 57 430 110
