table row 0.5493058562278748 48 395 968 428
table row 0.5538164973258972 48 515 968 547
table column 0.9922314882278442 529 52 598 1376
table row 0.7001092433929443 50 353 967 387
table row 0.7075228691101074 49 172 967 204
table row 0.8823009133338928 49 236 967 265
table column 0.9998297691345215 802 54 966 1376
table row 0.8679123520851135 49 207 967 237
table row 0.6831514835357666 47 815 968 1185
table row 0.9795342683792114 50 263 966 295
table row 0.5219199061393738 49 608 968 641
table column 0.9839043617248535 437 54 528 1375
table row 0.6004761457443237 47 378 969 411
table row 0.8934187293052673 49 141 967 173
table column 0.9998072981834412 591 53 805 1377
table row 0.5683634281158447 51 808 966 848
table row 0.8852840065956116 49 326 967 369
table row 0.8665654063224792 49 97 967 139
table column 0.9999164342880249 52 54 438 1376
table 0.9999998807907104 50 53 967 1376
table row 0.9436689019203186 48 292 969 335
table row 0.7923935055732727 52 1183 964 1380
table row 0.9670015573501587 50 52 966 97
