table row 0.9465056657791138 35 677 334 700
table row 0.6914365291595459 35 338 334 354
table row 0.7582373023033142 35 532 332 548
table row 0.902694582939148 36 777 333 790
table row 0.9231053590774536 36 176 333 190
table row 0.9492424130439758 36 119 333 133
table row 0.9348512291908264 35 621 333 647
table row 0.6522843837738037 36 537 333 553
table row 0.9655210375785828 35 649 333 680
table row 0.5742641687393188 35 274 333 289
table row 0.7355638146400452 34 285 333 300
table row 0.9496534466743469 36 104 332 119
table row 0.967326283454895 36 82 333 104
table row 0.8818901777267456 36 559 332 575
table row 0.6788779497146606 34 385 335 403
table row 0.944269597530365 35 206 334 225
table column 0.9998970031738281 37 52 223 803
table row 0.8058470487594604 34 158 334 173
table row 0.9185518026351929 36 700 333 715
table row 0.6699771285057068 36 243 332 263
table row 0.8446109890937805 35 134 332 147
table row 0.6128106117248535 36 228 332 244
table row 0.6548045873641968 36 507 333 523
table row 0.8935046195983887 36 759 332 776
table row 0.9001887440681458 35 570 332 595
table row 0.6141027808189392 37 255 333 270
table row 0.70793616771698 35 435 333 459
table row 0.8142622709274292 35 258 334 273
table row 0.6645598411560059 36 486 332 502
table row 0.986396074295044 36 587 332 606
table row 0.6802961230278015 36 146 333 161
table row 0.7316794991493225 36 460 333 475
table row 0.976860523223877 36 50 332 82
table row 0.6225866675376892 35 329 333 345
table row 0.5766341686248779 35 473 333 488
table row 0.5742989182472229 36 239 333 255
table column 0.9987999200820923 235 49 332 804
table row 0.6798274517059326 36 520 332 535
table row 0.670701265335083 36 502 332 517
table row 0.6945742964744568 35 552 333 568
table row 0.9231104254722595 36 792 332 805
table column header 0.9953018426895142 37 50 331 82
table row 0.7366769909858704 36 319 333 335
table row 0.8038908839225769 35 602 333 626
table row 0.7519250512123108 36 736 333 758
table row 0.5689530372619629 36 326 333 345
table row 0.7052616477012634 36 249 333 265
table row 0.677815854549408 35 301 334 321
table row 0.840334415435791 36 190 332 205
table row 0.6157775521278381 36 217 333 232
table row 0.8109864592552185 36 714 333 739
table 0.9999984502792358 37 49 332 803
