table row 0.9951955676078796 38 230 635 243
table row 0.9963957667350769 38 297 635 310
table row 0.9855386018753052 38 102 635 115
table row 0.9954503178596497 38 203 635 217
table row 0.9969775676727295 38 217 636 230
table row 0.9928869605064392 38 128 635 141
table row 0.9930055737495422 38 88 635 102
table row 0.997545063495636 38 68 636 89
table row 0.9868817329406738 39 115 635 128
table column 0.9999867677688599 38 48 371 323
table row 0.9880289435386658 38 244 635 257
table row 0.9982012510299683 38 284 635 297
table row 0.9468991756439209 38 166 635 179
table row 0.9995853304862976 38 48 635 68
table column 0.9999895095825195 369 48 524 323
table column 0.9998445510864258 524 48 635 322
table row 0.9980073571205139 38 310 636 322
table column header 0.9990968704223633 38 48 635 69
table row 0.9870983958244324 38 141 635 155
table row 0.984786331653595 38 190 636 203
table row 0.9944713115692139 39 270 635 284
table row 0.9970591068267822 38 155 636 168
table row 0.9330474734306335 38 180 635 193
table row 0.9960432052612305 38 257 635 270
table 0.9999918937683105 38 47 635 322
