table row 0.9977518916130066 38 167 599 180
table row 0.9979827404022217 38 103 599 117
table row 0.9977624416351318 37 89 600 103
table row 0.9971941709518433 38 69 599 89
table row 0.9611443877220154 38 115 599 129
table column 0.9999836683273315 38 49 222 193
table row 0.9989523887634277 37 153 599 167
table row 0.9993261098861694 38 49 599 69
table column 0.9999936819076538 222 49 455 193
table column 0.9997848868370056 456 48 599 193
table row 0.9993603825569153 38 180 600 193
table column header 0.9993526339530945 38 49 599 69
table row 0.997093915939331 38 140 600 154
table row 0.9981071949005127 38 127 600 140
table 0.9999971389770508 38 48 599 193
