table row 0.9893462061882019 24 148 567 161
table row 0.9972851276397705 24 65 568 78
table row 0.9785103797912598 24 90 567 103
table row 0.9947040677070618 24 52 568 65
table row 0.9821674823760986 24 39 568 52
table row 0.9931134581565857 23 77 568 90
table column 0.9995679259300232 23 28 251 171
table row 0.8870344161987305 24 98 567 110
table row 0.9841034412384033 24 135 568 148
table row 0.9982460737228394 24 28 568 39
table column 0.9826523065567017 368 28 465 170
table column 0.999455988407135 440 28 567 170
table row 0.9641340374946594 24 160 568 171
table row 0.9941165447235107 24 123 568 136
table row 0.9954971075057983 23 110 567 123
table 0.9999978542327881 24 28 567 171
