table row 0.9844560623168945 19 134 354 149
table row 0.993887722492218 19 204 354 218
table row 0.9926750063896179 19 80 353 95
table row 0.9976740479469299 19 110 353 126
table row 0.9774723649024963 19 65 354 79
table row 0.852983295917511 19 48 354 65
table row 0.9718114137649536 20 94 353 109
table column 0.9844722151756287 20 31 137 229
table row 0.9959003329277039 19 147 354 162
table row 0.9955043196678162 20 191 353 205
table row 0.602281391620636 18 30 354 46
table column 0.9975294470787048 138 32 278 231
table column 0.6357631087303162 282 32 354 231
table row 0.9124706387519836 19 217 354 229
table column header 0.9409914016723633 19 31 354 48
table row 0.996769905090332 19 122 353 138
table row 0.9966094493865967 19 176 353 191
table row 0.9975513815879822 19 161 353 176
table 0.9999767541885376 19 31 354 230
