﻿0,1,2,3,4,5,6,7,8,9,10,11
Inequality measure,,,,,,,,,,,
,1997,1998,1999,2000,001,2002,2003,2004,2005,2006,2007
Median household inco,"S49,497","S51,295","S52,587","S52,500 S5","1,356 S5","50,756","550,711","S50,535","S51,093","S51,473","S52,163"
Household income ineq,0.4590,0.4560,0.4580,0.4620 0.,4660 0,4620,0.4640,0.4660,0.4690,0.4700,0.4630
Between-state income ,0.0628,0.0636,0.0612,0.0646 0.,0658 0,.0671,0.0624,0.0701,0.0677,0.0713,0.0749
Premature mortality (,7108.3,6960.6,6920.0,6899.5 69,940.6,965.2,6970.7,6841.5,6912.9,6882.0,6799.5
Between-state inequal,0.0762,0.0785,0.0820,0.0850 0.,0819 0,.0861,0.0868,0.0926,0.0939,0.0963,0.0956
Mean Health and Activ,0.8766,0.8762,0.8779,0.8783 0.,8747,8722,0.8711,0.8712,0.8708,0.8684,0.8662
Inequality in HALex  ,0.0928,0.0872,0.0848,0.0840 0.,0871 U,.0884,0.0888,0.0878,0.0886,0.0904,0.0862
