﻿0,1
ene name,Fold cha
NF-Induced procein,1.9
umour necrosis factor,1.9
r necrosis Tor ~suner,
Imour necrosis fac-or,
umour necrosis factor,1.6
eath-associated prore,15
NA trazmcntaticn lact,
ci-2-rCAIed protemn A,22
d {2 rI-Z antagonisci,
l ALlLii9 -=,
At=dleldeLat leitD do,
F nt=d aculoviral IAP,e 12
,
e D27-binding (Siva) ,15
niorccoxin-KD SAKUa i,A
icrctubule associated,
A= Dris_ LlaCLietel_i,
GL0s Enhinced &en Lan,I2
St] o lt nculacenborg, Benjami
Icnc namc,Fold ch=
aior histocomparbilit,20
ajar histocompatibili,18
ajor histocompatibili,18
sapicns HLA-DMA gcnc,
ajar histocampacibili,16
ajar histocomparibili,15
