﻿0,1,2,3,4
"nal, in-vivo",BNT,MSC,Jndefined mesenchymal,PCR for collazen gene
"nal, in-wiva",Blcamyrin fbrosis,MSc,Typc | pncumorytos { ,0 galctosidasc protci
nal; in-wio,BNT,HSC cnrichmcnt,Type Il pncumorytos /,Y chromosomc FISH; su
Mai; M-rd,auralicn pneumcnitis ,Anole done ManTGw,'ype M paeumocttes; #,chlomcsometiim; surfa
t5,, EGFP retroviri,Wnt_ Feee d,t=se surfactint prote
nal; i-Kivo,BNT and pirabiotic Wn,HSC,Hematopaietic chimeri,EGFP
"nal, i-viro",Bleomycin fbrosls,MSC,ee t Type Il pneumocy,Y chromosome FISH
Hili-d,Ueauldtio uio9i ,o_ Jicedoe Marrowy  ,cocdai? Ccno S,Cot! cunomioec cn- vi
MaMn-tmd,M,Hodnc Mmatcon labeled,Fctecge pc epncumnc t,Niow Grcau
nil; in- and in-,Aypoxia-Incuced pulmo,Crculating BH-derived,~~kIt pOsuve ceils In,Flow cxtometry and im
"nal, In-",hypertcnsion Ablative,GFP + fetal liver,ercratc cndothclial a,Immunohlscochemistry 
"nal, In-",t induccd emphysema B,Whole marrow GFPt,eet=5 =ees=eiL 3-CSF ,t  Flow cytometry and
nan;,Heat shock Irt cell C,MSC and SAEC,Cell fusion { common,Immunoniscochemiscty:
"nal, I-Kro nan; in-vi",OVA-sensicized mouse ,CD34 posicive 1 expre,Xyclibroblasts / ! My,CD34-posicive; collag
,Allergen sensiuzed as,CD34 posiuive callaze,,"CD34 posilive, collag"
nan in-viva,Human hcart and trars,Scx-mismatchcd donor ,Vo rcll typcs of rcci,Xand Y chromosomc FIS
"nann-""io",Humzn Jum,Sex-mismacched doncr,Bronchlal epichellum ,hematopoelcic cells Y
,transplant,wun,"neumocytes, glands of",candem repeat PCR
,CCtC U UIt,DCSAiecneeotdI bone m,3itd Vo ~cell types o,UC ccsoecAuo- cndem r
Htl- U-eed,Umutn DII,Jeriielnec Gcci bonc ,Lul  epilelllin Jlo  ,4Enu  cunoniosdmencn;
