﻿0,1,2
,1996,1993
Auatria,3 50, 5a
1 LCD 14 Delciu,O i,Den C0
DUgUIL LUA Dern ~,CUL F0,JOU Fa
LJOILIAI I Cilara,0] 00,Ot 04
1 II411 Crance,70; 51,Jtr A0
1 [01160,J 1,TTo
Germany,45,45
Greece,28,11
Treland,64,62
Italy,12,11
Netherlands,50,52
Portugal,56,36
Spain,32,22
Sweden,78,79
UK,56,50
