﻿0,1,2,3,4
Region and state,Actual 2003-04,Projected,,
,to 2008-09,2008-09 to 2015-16,2015-16 to 2021-22,2008-09 to 2021-22
United States,10.4,0.9,3.8,47
Northeast,13.9,-0.4,0.3,-0.1
Connecticut,1.1,0.6,-5.9,-5.3
Maine Massachusetts,6.1 11.9,-10.6 3.4,3.2 -1.6,-13.4 55.0
New Hampshire,10.9,-8.3,-6.6,-14.3
New Jersey AVA,13.4 Oc 0,-3.9 O 5,-0.22 O -,-4.1 O O
TvCvV Toi Pennsylvani,Co.J 5.8,9.0 -7.0,Fu.o 6.5,O.U -0.9
Rhode Island Vermont,8.3 1.5,-76 -16.4,-0.8 55.8,-8.3 -21.2
Midwest,5.5,-6.0,1.6,-4.5
TOIS Indiana,0.0 42 7,Fu.s 9 1,J0.0 9 ^,~0.4 1 5
EaiaTL lowa,Aan -1.22,AL? 3.7,LCe 2.7,Cne -1.1
Kansas,"0,",L6,65,
Michigan,14.1,-11.4,55.5,-16.3
Minnesota Missouri,1.1 8.6,-5.3 -2.0,10.0 0.8,4.1 -.2
Nebraska NA+LDa +2,-4.0,1.1 0 5,13.0 40 0,14.3
ToiI Danoia Ohio,Fo.o 2.7,L.o -17.0,C.o -1.4,D.O -18.2
South Dakota,-9.8,0.2,8.8,9.1
TL'Mc F,S,Z,n,
Ai South NLA  _,Ann 12.8 45 ^,F@ 5.5 a -,nn 5.3 4 -,11.1
Riapainia Arkansas,T0. 3 2,.o 3 3,A.o 3 5,YO.i 6 9
Delaware,12.8,1.9,11.1,13.3
District of Columbia,16.0,~20.(,-9.7,~28.3
Florida Georqia,16.8 28.4,4.9 7.2,1.9 1.9,6.9 10.0
,,,,
Kentucky,10.8,-5.4,2.2,-.3
Louislana Maryland Mi,"""3.8 10.3 3 9",-1.o 3.2 3 9,3. 6.6 29 3,7.4 3.1 5
Csdn|' Nortk Carolina,l 90 9,lg 1 8,3ni 19 0,ll 1 Q
AciGLL Oklahoma,LiL 1.1,Cn 5.1,LCe 6.4,A m 11.9
oouin yarommna,F.(,0.,0.0,9.1
Tennessee,31.0,-0.4,3.7,3.3
Texas Vircinia,8.2 10 6,14.( 1 ^,11.8 6 9,28.2 7 7
"479""nc",4Oio,4 0I,CoiL,U 61
WvEsi vilginia West,L. 9 3,"0,0 1.9",7.5 6 3,~L.o 8 4
Nacka,40 7,,0 /,
Aaona Arizona,Ao. 27 1,Dda@ _5 2,IOiT 19 ^,L 6 A
AilTL California,n 8 4,A@ -0 2,ELe? 4 6,A#n 4 4
Colorado,6 0,11.7,115,24 5
Hawaii,11.5,-9 7,3 0,-7 0
Idaho,8.1,1.7,4.3,6.1
Montana,-4.0,-10.1,5.7,-4.9
Nevada,30.9,28.0,3.6,32 5
New Mexico,0.2,5.1,9.0,14.6
Oregon,6.6,-0.5,1.1,0.6
Utah,0.7,13.3,15.4,30.7
Washington,2.4,6.5,5.1,12.0
Wvomina,55.8,3.2,10.8,14.3
