﻿0,1,2,3,4,5,6,7,8,9
Year,Unn,,,[In thousar,ds],,,,
,Total,,,,Grade,,,,
,,PK,K,1,2,3,4,5,6
Actual,,,,,,,,,
1996,"45,611",670,"3,532","3,770","3,600","3,524","3,454","3,453","3,494"
1997,"46,127",695,"3,503","3,755","3,689","3,597","3,507","3,458","3,492"
1998,"46,539",729,"3,443","3,727","3,681","3,696","3,592","3,520","3,497"
1999 ,"46,85 ( e ",(51 n,"3,39 (  ","3,684  ","3,656  ","3,691  e","3,686 ","3,604  Ue","3,504  "
ZUUu,"40,204",((0,"3,382","3,030","3,034","3,0/0","3,71|","3,(0(","3,003"
Zuut,"46,6/2",805,"3,379","3,014","3,593","3,053","3,095","3,/2(","3,/69"
Zuuz,"48,183",915,"3,434","3,594","3,505","3,023","3,009","3,(11","3,(88"
Zuus,"40,040 7c7",Sju,"3,ju5","3,013","3,044 a","3,0 | |","3,019","3,0o3","3,7 (2 7c7"
Zuu4 oooc,"40,(9j Ao 442",9ju 4 0rc,"3,044 9 640","3,003 9 604","J,oou 9 Goc","3,jou 9 5oc","3,012 2 570","3,O33 9 699","3,( 33 9 670"
LooU oooc,"Gto, T0 Ao 216",ooo 1 0o^,OioT 0 2 601,Dioo ' 2 754,Oiooo 2 6A+,Diooo 2 697,Oioi 0 0 5oc,Oiooo 2 5oo,Oioi 0 0 Gco
LOoo 2007,FTooTO 49 293,AJoot 1 081,ioo [ 3 609,Oii U [ 3 750,Ooet | 3 704,Oiol' 3 659,Oiooo 3 694,Oiool 3 60o,Oiooo 3 698
3n 2008,7nin 49 266,U] 1180,y 3 640,l 3 708,d1 3 69g,e 3 708, ]L 3 647,) 3 690,n 3 614
4n 2009,4dL 49 373,A)d 1.224,)1 3 679,e 3 730,) 3 666,se 3 708,nd 3 701,)l 3 653,d 3 645
2010,n 49 484,1 979,3 682,3 754,3 701,3 686,3 711,3 718,3 689
3) 0n FLn1 ell el iLz,,,,,,,,,
,,,,,,,,,
Zu| | 004o,"45,030 Ao 0o0","1,2o( Ooc","3,(Uj 709","3,7 (9 9 00A","3,( 24 0 7a0","3,( | ( 9 744","3,o9u 9 704","3,( 2J 9 709","3,/44 9 75o"
CuT2 9049,"GJ,oco 5o 0c7",TCJu 4 907,"0,i O0 9 7c5","0,out 2 099","0,749 9 770","0,141 9 7c6","0,72| 9 7AA","0,i Uo 9 795","0,i OL 9 720"
LoT0 201^,Joiooi 50 ^07,Tooi 1 290,Oii OU 2 801,Oiool 3 R65,Oi ' 0 3 809,Oi Oo 2 790,OiTt 3 770,Oi Oy 3 758,Oii Oo 3 761
L 9015,A) Ei 5O 772,Ea =L 1 222,A9iii 2 920,C g 2 009,A9c= 2 0r5,"A) ""i 2 040", g [[ 2 701,A [i 2 781,Cgi 2 705
Li~~ 2016,Oo)' ' # 51 146,49 Lnn 1 346,OCaCCl 3 876,CCool 3 941,OLgCcl 3 871,Asntn 3 859,JO)! O 3 899,C)i Oi 3 808,Aoai Co 3 811
Un 2017, 51 524,Ae l 1 359,nd 3 919,) 3 980, e 3 910,nL 3 888,)L 3 855, 3 837,)1n 3 835
U 2018,dL 51 880,L) 1 370,nL 3 946,] 4 017,yd 3 948,n 3 997,) 3 899,yn 3 870,) 3 864
3 2019,d 59 260,U)1 1 381, l 3 977,U) 4 059,) l 3 985,nL1 3 966,)l 3 931, ye 3 907,n 3 897
F 2020, Lg 52 688,ALl 1 391,9e1 4 006,AnL= 4 085,) 4 020,e 4 003,]  3 970,)e 3 946,nd 3 935
2021,53 113,1 400, 4 033,4 115,n 4 052,4 038,4 007,3 985,3 974
