﻿0,1,2,3,4
Year,,Total,Public,Private
Actual,,,,
1996,,16.9,17.1,15.E
1997,,16.6,16.8,15.2
1998,,16.3,16.4,15.C
1999,,15.9,16.1,14.7
2000,,15.9,16.0,14.5
2001,,15.7,15.9,14.=
2002,,15.7,15.9,14.1
ZUUS,,7J 0 (,70.9,3.C
ZUU4,,70.,70.8,13.(
Dooc,,45 ^,45 G,49 C
Cooo Dooc,,o. 45 9,4O.0 45 C,TO 40 <
Cooo 2oo7,,o.o 45 9,FO.0 45 -,o.C 42 (
Cooi Dooo,,T9L 15 0,4o.0 45 2,TO C 19 =
COOod Jooo,,4O+o 45 0,4 Dio 45 ^,ALT 40 C
Zouj 2010,,To.0 15.0,0.+ 15.2,TC 12.4
Dycie,,,,
ojcolcu 2o44,,44 0,45 0,40 -
Co | [ 2040,,At.o 4 4 0,0. 45 0,C 40 <
L0[2 2042,,45.0 44 0,70. 45 4,C. 49 =
Lo 0 D01A,,Tt o 1A 7,TO. 45 0,ACC 19 <
I1 2015,,A@ 1A 6,An 1A 9,ALi D 19 1
I1 2016,,A[d 14 5,d 14 8,Slii @ 12 1
 2017,,14 4,14 7,12 C
= 2018,,14.3,14.6,S1 11.S
2019,,14.2,14.5,11.8
2020,,14.1,14.4,11.7
2021,,14.1,14.4,11.7
