﻿0,1,2,3,4
,ma,p,,
Austria,86.2,13.8,0,"3,375"
Belgium,0,0,100.0,"3,973"
Bulgaria,0,0,100.0,"1,136"
Cyprus,81.0,3.8,15.2,158
Czech Republic,98.6,1.4,0,"17,655"
Denmark,3.1,10.2,86.7,",662 1,"
Estonia,94.2,5.8,0,430
Finland,13.6,83.0,3.4,"2,737"
France,0,0,100.0,"5,510"
Germany,90.5,4.4,5.1,"55,400"
Hungary,99.8,0.2,0,"6,575"
Ireland,33.9,31.6,34.5,440
Italy,0,0,100.0,"4,499"
Latvia,98.1,1.9,0,619
Lithuania,99.0,1.0,0,"2,270"
Luxembourg,93.9,6.1,0,163
Malta,96.5,3.5,0,85
Netherlands,87.1,12.9,0,"1,245"
Poland,0,0,100.0,"11,155"
Portugal,0,1.0,99.0,482
Romania,0,0,100.0,620
Slovakia,99.4,0.6,0,"8,367"
Slovenia,0,0,100.0,"1,346"
Spain,100.0,0,0,"3,658"
Sweden,23.9,73.7,2.4,"3,930"
United Kingdom,24.0,21.4,54.6,"13,802"
EU Total,65.1,7.9,27.0,"151,292"
Iceland,19.4,66.7,14.0,93
Liechtenstein,0,0,100.0,1
Norwav,23.7,72.2,4.1,1.649
