﻿0,1,2
t to continur MY cdur,,"14+0,8"
~pulmcnary-rclatcd pr,,10 + 10
Y Gring for pulmonany,3,24+ 05
pulmonary phwriolozy ,,13 + 0.8
 the oulmonary Gculty,,24+0.8
,,
"2poidy npceL Cota""ge ",A,Le EOe
Tedocig E #holilo uco,,MtEOea
T CuonalicnecoiGCCu C,,AeLOa
Ypuiccnt Cunic LUI ~,,L4I 0.
c iliC McTdiu Pilienc,Io,L 1-
Yed c4mjaici ? paiutu,,L I0
